<?xml version="1.0" encoding="utf-8"?>
<!-- Generator: Adobe Illustrator 19.0.0, SVG Export Plug-In . SVG Version: 6.00 Build 0)  -->
<svg version="1.1" id="Слой_1" xmlns="http://www.w3.org/2000/svg" xmlns:xlink="http://www.w3.org/1999/xlink" x="0px" y="0px"
	 viewBox="-55 122 500 550" style="enable-background:new -55 122 500 550;" xml:space="preserve">
<style type="text/css">
	.st0{display:none;}
	.st1{display:inline;fill:url(#SVGID_1_);}
	.st2{display:inline;opacity:0.25;fill:url(#SVGID_2_);enable-background:new    ;}
	.st3{display:inline;opacity:0.28;fill:url(#SVGID_3_);enable-background:new    ;}
	.st4{display:inline;opacity:0.15;fill:url(#SVGID_4_);enable-background:new    ;}
	.st5{fill:#74CFEC;}
	.st6{fill:#FFFFFF;}
	.st7{opacity:0.61;fill:#74CFEC;enable-background:new    ;}
	.st8{fill:#C9B09C;}
	.st9{opacity:0.55;fill:#E2DEDE;enable-background:new    ;}
	.st10{opacity:0.8;fill:#EDBC7A;enable-background:new    ;}
	.st11{fill:#B7710D;}
	.st12{opacity:0.61;fill:#BAEBF4;enable-background:new    ;}
	.st13{fill:#EF6359;}
	.st14{fill:#EDBC7A;}
	.st15{opacity:0.45;fill:#E2DEDE;enable-background:new    ;}
	.st16{opacity:0.4;fill:#FFFFFF;enable-background:new    ;}
	.st17{opacity:0.35;fill:#FFFFFF;enable-background:new    ;}
	.st18{fill:#070707;}
	.st19{fill:none;stroke:#070707;stroke-width:1.5;stroke-miterlimit:10;}
	.st20{fill:none;stroke:#070707;stroke-miterlimit:10;}
	.st21{fill:#231F20;}
	.st22{fill:none;stroke:#231F20;stroke-width:0.5;stroke-miterlimit:10;}
	.st23{fill:none;stroke:#231F20;stroke-width:2;stroke-miterlimit:10;}
	.st24{fill:none;stroke:#231F20;stroke-miterlimit:10;}
</style>
<g id="Layer_5" class="st0">
	
		<linearGradient id="SVGID_1_" gradientUnits="userSpaceOnUse" x1="-45.9202" y1="397.7303" x2="435.2236" y2="397.7303" gradientTransform="matrix(1 0 0 -1 0 796)">
		<stop  offset="0" style="stop-color:#2484C6;stop-opacity:0"/>
		<stop  offset="0.6385" style="stop-color:#2484C6"/>
		<stop  offset="0.919" style="stop-color:#2900AA;stop-opacity:0.9621"/>
		<stop  offset="1" style="stop-color:#2900AA;stop-opacity:0.9621"/>
	</linearGradient>
	<path class="st1" d="M73.3,514.7c-7.4,4.1-25.1,12.6-48.9,11.6C17,526-9.2,524.9-26.9,508c-27.4-26.1-19.8-75.8-10.4-123.2
		c0.8-4,1.6-8,2.4-11.9c4.4-21.6,9.8-38.8,13.5-49.5c2.9-12.9,10.7-39.8,33.6-64.8c28.7-31.3,63.3-40.2,75.8-42.8
		c7.9-13.7,36.6-59.9,80.7-67.9c8-1.4,23.1-4.1,33.6,4.3c12.8,10.2,5.7,26,15.3,37.3c15.7,18.5,53.6-2,91.7,1.2
		c25.8,2.2,60.1,15.9,98.4,65.4c8.6,13.3,28.3,47.8,27.5,95.4c-0.6,36.8-13.2,64.4-20.8,78.3c-4.3,12.2-10.2,29.4-17.1,50.1
		c-16.8,50.4-20,62.9-14.7,76.4c1.9,4.8,5.5,11.6,7.9,23.2c2.2,10.7,2.2,19.8,1.8,25.7c-1.6,5.6-4.8,14.1-11.6,22.6
		c-11.8,14.6-26.9,19.7-33,21.4c-8,0-20.6-0.6-35.5-4.3c-26.2-6.4-31.8-15.5-52-15.3c-15.5,0.2-29.9,5.7-34.2,7.3
		c-10.9,4.2-12.9,6.9-20.8,9.8c-16.9,6.1-32.6,2.8-42.8,0.6c-5.2-1.1-62.9-14-67.3-44c-3.2-21.9,25.3-31.7,22-61.1
		c-0.4-4-2.2-20.2-15.3-27.5C89.7,507.7,75.6,513.7,73.3,514.7z"/>
	
		<linearGradient id="SVGID_2_" gradientUnits="userSpaceOnUse" x1="-49.5" y1="384.5186" x2="435.446" y2="384.5186" gradientTransform="matrix(1 0 0 -1 0 796)">
		<stop  offset="0" style="stop-color:#2484C6;stop-opacity:0"/>
		<stop  offset="0" style="stop-color:#2484C6;stop-opacity:3.392472e-002"/>
		<stop  offset="0.1412" style="stop-color:#04E900;stop-opacity:0.9621"/>
		<stop  offset="0.3108" style="stop-color:#079B00;stop-opacity:0.6708"/>
		<stop  offset="0.6783" style="stop-color:#3800BF;stop-opacity:0.9386"/>
		<stop  offset="0.8819" style="stop-color:#15FF31;stop-opacity:0.9621"/>
	</linearGradient>
	<path class="st2" d="M18,450.8c0.9,1.8,4.5,8.6,12,10.8c7.1,2.1,13.3-1.2,15.1-2.2c19.5-10.3,11-44.3,25.5-50.5
		c4.6-1.9,10.1-0.6,36.6,16.9c17.8,11.7,32.2,22.3,42.5,30.1c23.9,13.8,45.7,26.2,66.4,38c5.4,3.1,11.2,6.3,19.4,6.8
		c16.8,1,22.5-11,44.1-20.5c24.9-11,34.2-2.5,49.4-13.7c12.7-9.3,18-23.9,20.5-35c3.9-2.2,16.2-8.6,32.6-6.5
		c15.6,2,25.6,10.4,29,13.5c0.8-2.1,1.4-3.8,1.8-5c0.8-2.4,0.9-3,1.6-4.3c0.8-1.7,1.3-1.8,2.3-3.6c0.9-1.6,1.3-2.8,1.8-4.1
		c1.3-3.4,2-4.4,3.4-7.7c1.8-4.2,5.6-12.9,8-23.2c0.5-2.1,0.7-3.5,1.8-8.4c1.3-5.6,1.5-6,1.8-8.2c0.6-3.5,0.4-4.2,0.9-10
		c0.7-7.8,1.3-9,0.7-9.3c-2.3-1.2-8.3,17.5-24.5,24.2c-4.9,2-12,3-22.3,5.5c-6.5,1.5-8.6,2-12.2,3.4c-4.6,1.8-5.5,2.8-8.8,3.4
		c-5.7,0.9-10.3-2.1-12.2-2.9c-16.1-7.7-46.3,29.4-62,21.4c-4.2-2.1-2.2-5-14.4-18.3c-4.9-5.3-6.7-6.4-6.8-9.1
		c-0.6-9.6,20.8-17.2,19.8-19.8c-0.5-1.3-6.4,0.3-14.4,1.5c-13.8,2.1-25.2,1.4-35,0.8c-17.1-1-17.4-3.4-22.8-1.5
		c-14.1,4.9-19,23.1-21.3,22.1c-1.3-0.6,0.7-6.4,1.5-18.3c0.5-7.5,0.7-11.2-0.5-12.5c-5.1-5.2-20.8,8.5-51.7,16
		c-4.8,1.2-11,2.3-23.5,4.6c-12.7,2.4-15,2.5-18.1,2.1c-1.6-0.2-15.6-2.4-21.9-13c-1.7-2.9-2.9-9.6-5.5-23.1c-0.7-4-1.5-8.4-5-12.2
		c-2.4-2.6-5.2-3.9-7.1-4.6c-5.9-1.5-14.8-3-25.2-1.7c-13.3,1.7-22.4,7.3-29.9,10.9c-9.7,4.7-23.6,11.2-41.4,18
		c-0.8,4.4-1.7,8.8-2.5,13.2c-6,32.1-11.7,64.1-17,95.8c1.8-4.6,9-20.9,25.8-27.3c3.5-1.3,12.1-4.1,22.1-0.8
		C11.5,436.7,17,448.7,18,450.8z"/>
	
		<linearGradient id="SVGID_3_" gradientUnits="userSpaceOnUse" x1="-20.5" y1="542.9997" x2="435.2" y2="542.9997" gradientTransform="matrix(1 0 0 -1 0 796)">
		<stop  offset="5.310961e-003" style="stop-color:#2484C6;stop-opacity:0"/>
		<stop  offset="0.2406" style="stop-color:#F22AFF;stop-opacity:0.4427"/>
		<stop  offset="0.5623" style="stop-color:#2484C6"/>
		<stop  offset="0.9989" style="stop-color:#E16C65"/>
	</linearGradient>
	<path class="st3" d="M-20.5,319.2c61-35,86.7-34.7,98-25c12.3,10.6,3.1,28.8,16.8,42c16.1,15.6,40.9-6.2,100.5-11.4
		c36.8-3.2,77.6-6.7,101.8,16.3c6.4,6.1,12.4,14.7,25.1,18.3c14.2,3.9,26.2-7.5,39.6-3.5c1.9,0.6,7,2.4,12.9,1
		c2.4-0.5,1.7-0.9,6.9-2.5c2.8-0.9,5.8-1.7,11.7-3.3c1-0.3,1.6-0.4,2.6-0.7c16.8-4.9,30.6-8.3,39.8-10.5
		c-0.7-16.9-4.3-40.5-16.7-65.2c-2-4-9.1-17.8-22.3-33.2c-11.8-13.8-23.7-23.5-32.9-30c-10.9-6.7-19.5-11.1-25.1-13.8
		c-4.9-2.3-8-3.6-11.8-4.6c-4.3-1.2-9.7-2.2-13-2.5c-0.6-0.1-1.7-0.2-3.4-0.4c-2.9-0.4-3.6-0.7-5-0.8c-1.9-0.2-3,0-5.9,0.4
		c-1.9,0.2,3.7-0.5-8.4,0.8c-8.2,0.9-12.3,1.4-14.3,1.7c-7.6,1.1-7.6,1.5-14.7,2.5c-2.5,0.3-2.2,0.2-11.8,1.3
		c-12.3,1.3-12.9,1.5-15.1,1.3c-3.7-0.3-8.9-0.8-13.9-4.6c-4.2-3.2-7.1-8-8-11.8c-0.2-0.7-0.8-3.5-1.3-5.9c-0.4-1.8-0.7-3.2-0.8-4.2
		c-0.3-3.4-1.6-14.9-10.5-21c-3.8-2.6-7.6-3.4-10.9-3.8c-12.2-1.4-30.7,1.5-50,13c0,0-23.7,14.1-38.3,37c-0.4,0.7-2.8,4.5-6.3,9.7
		c-2.8,4.1-5.1,7.5-6.7,9.7c-1.9,0.8-3.5,1.3-4.6,1.7c-3.2,1-3.8,0.9-7.6,2.1c-1.4,0.4-2.1,0.7-4,1.3c-2,0.6-2.6,0.8-5.2,1.7
		c-3.3,1.1-6,2.2-8,2.9c-12.6,5.6-38.1,19.1-58,47.5C-11.8,290.4-17.6,307.5-20.5,319.2z"/>
	
		<linearGradient id="SVGID_4_" gradientUnits="userSpaceOnUse" x1="-29.1879" y1="247.1061" x2="392.9677" y2="247.1061" gradientTransform="matrix(1 0 0 -1 0 796)">
		<stop  offset="0.5058" style="stop-color:#CC6880;stop-opacity:0.8786"/>
		<stop  offset="0.6936" style="stop-color:#EC33EC;stop-opacity:0.5644"/>
		<stop  offset="0.7932" style="stop-color:#2484C6;stop-opacity:0"/>
		<stop  offset="1" style="stop-color:#2484C6"/>
		<stop  offset="1" style="stop-color:#2B83C2"/>
		<stop  offset="1" style="stop-color:#4A7FB2"/>
	</linearGradient>
	<path class="st4" d="M95.7,604.3c0.1,0.4,0.8,3.9,2.5,7.5c2,4.1,5.6,9.2,14.5,15.5c2.1,1.5,8.2,5.7,19.9,10.6
		c3.2,1.3,15.5,6.4,33.3,10c11.1,2.2,16.8,3.3,24.1,2.5c8.5-0.9,15.4-3.6,19.1-5c8.2-3.3,6.9-4.3,15.6-8c0,0,12.6-5.5,28.6-7.5
		c1.7-0.2,4.2-0.6,7.5-0.5c0.9,0,1.1,0.1,7.5,0.9c5.4,0.7,6.1,0.7,7.5,1.2c1.4,0.4,2.7,0.9,5.2,1.9c2.6,1,4.5,1.9,4.9,2.1
		c4.9,2.2,12.1,5.3,14,6c8.5,3.4,15.6,4.5,25.1,6c6.6,1.1,11.1,1.4,13,1.5c6.4,0.4,9.6,1.1,13,0c1-0.3,1.1-0.4,6.9-3.6
		c9.7-5.3,9.4-5,10.7-5.9c3-2.1,5.3-4.3,9.8-8.8c3.5-3.5,4.5-4.8,5.2-5.8c1.4-2,1.2-2.3,3.9-7.2c2.4-4.5,2.8-4.7,3.6-6.8
		c0.2-0.5,1.1-3,1.6-6.5c0.6-4.3,0.1-8.1-0.6-11.1c0.2-5.6-0.4-10-1-13c-1.2-6.2-3.5-11.7-5.5-16.6c-2.1-5.1-2.5-5.2-3-7.5
		c-1.2-5.3-0.1-8.7-2.5-10.5c-1.5-1.1-3-1.3-4-1.5c-6.6-1.4-12.6-16.8-11.6-31.3c1.5-21.6,17.4-26,15.6-38.2
		c-2.8-19-45.9-35.6-59.2-23.4c-15.2,13.9,5.3,68.5,0.6,69.7c-0.2,0.1-1.3-0.1-3.4-0.4c-2.9-0.4-3.6-0.7-5-0.8c-1.9-0.2-3,0-5.9,0.4
		c-1.9,0.2,3.7-0.5-8.4,0.8c-8.2,0.9-12.3,1.4-14.3,1.7c-7.6,1.1-7.6,1.5-14.7,2.5c-2.5,0.3-2.2,0.2-11.8,1.3
		c-12.3,1.3-12.9,1.5-15.1,1.3c-3.7-0.3-8.9-0.8-13.9-4.6c-4.2-3.2-7.1-8-8-11.8c-0.2-0.7-0.8-3.5-1.3-5.9c-0.4-1.8-0.7-3.2-0.8-4.2
		c-3.1-5-7.1-12.1-10.5-21c-5.7-14.8-3.8-21-9.1-24.2c-7.8-4.7-23.7,1.5-31.2,10.9c-2.5,3.2-3.3,5.6-7,8.6
		c-5.4,4.2-11.6,5.2-16.4,5.5c-18.8,1-30.4-8.7-44.4-9.4c-20-1-23,17.4-49.1,28.8c-38.7,17-78.1-3.3-80.3,3.9
		c-1.4,4.5,14.2,13.7,25.7,17.9c16.7,6.1,35.1,4,35.1,3.9l-0.7-0.1c0,0,1.2,0.1,2.6,0.2c0.6,0,1.5,0,3-0.2c9.4-1,15.7-2.7,15.7-2.7
		c2.7-0.7,6-1.6,10.1-3.4c2.3-1,3.6-1.7,9.4-4.3c2.6-1.2,3.9-1.8,4.2-1.9c8.3-3.2,15.9-2.1,17.6-1.8c1.6,0.3,3.9,0.8,6.6,1.8l0,0
		c0,0,5.1,2.7,11.1,10.2c0,0.1,0.8,1.1,0.7,1.2c-0.1,0.1-0.9-0.6-0.9-0.5c-0.1,0.1,1.9,2,2.4,3.5c0.1,0.4,0.2,0.7,0.2,0.7
		c0.2,0.7,0.2,1.2,0.8,2.8c0.8,2.6,1.3,3,1.8,4.9c0.4,1.2,0.5,2.2,0.7,4.2c0.4,3.5,0.7,5.6,0.5,8.5c-0.2,2.7-0.6,4.9-1,6.7
		c-0.2,0.8-0.5,2.4-1,3.9c-1.2,3.6-2.7,5-6,10c-2.8,4.2-2.2,3.9-4.8,7.8c-3,4.4-3.3,4.1-5.2,7.2c-1.9,3.1-3.9,6.2-4.5,10.7
		C94.6,599.1,95.3,602.2,95.7,604.3z"/>
</g>
<g id="Layer_1">
	<path class="st5" d="M160.3,447.7l-0.7-15l-2.1-23.3c0,0-1.1-39.3,4.5-54.5c0,0-27.5-4.7-15.6-29.2c0,0,15.9-19.6,34.3-5.9l1.9-0.7
		c0,0,14.5-18,53.4-18.8l34.5-2.5c0,0,27.5,2.9,44.9,17.3c0,0,23.5-11.8,34,3.5c0,0,12.8,23.8-11.6,32l-0.3,2.7l2.4,12.9l1.2,13.5
		l0.4,18.1v32.3l0.8,20.7l2.2,48.9V517l-1.2,13.9l-2.8,14.5l-3.4,9.7l-2.9,5.8l-6.3,10.8l-2.3,2.3c0,0-14.1-1.6-18,9.9l-6.4,3.8
		l-10.4,2.6l-15.7,2.8l-14.2,2.1l-12.6,1.7h-14.2h-10l-10.1-2.4l-8.8-2.2l-6.5-4V587l-4-4l-3.6-3.2l-3.4-2.9l-3.2-0.6l-3.9,0.6
		l-4.1-4.6c0,0-18.2-18.9-18.3-52.5l1.7-28.8l0.9-17.5L160.3,447.7z"/>
	<circle class="st6" cx="215.6" cy="347.1" r="27.9"/>
	<circle class="st6" cx="284" cy="344.2" r="27.9"/>
	<path class="st7" d="M195.1,364.7c0.8,0.5,2.1,1.3,3.6,2c2.3,1.1,4.7,1.7,7.8,2.2c4.2,0.7,10.5,1.7,18.6,0.2
		c2.7-0.5,6.5-1.5,10.8-3.4c-1.4,1.6-8.2,8.8-19,9.4c0,0-7.9,0.4-16-4.1c-1-0.6-2.8-1.6-4.3-3.6
		C195.9,366.4,195.4,365.4,195.1,364.7z"/>
	<path class="st7" d="M262.7,362.1c1.5,0.7,3.4,1.5,5.7,2.2c0.7,0.2,3.6,1.1,7.2,1.7c9.5,1.5,17.6-0.1,18.7-0.3
		c2.8-0.6,6.8-1.7,11.1-3.8c-1,1.4-2.5,3.3-4.8,5.1c-6.2,4.9-13,5.4-15.2,5.5c-7.4,0.4-13.4-2.3-16-4.1c-2.1-1.5-4.3-3.6-4.3-3.6
		C264.1,363.7,263.3,362.8,262.7,362.1z"/>
	<path class="st6" d="M240.2,391.9c-0.3,1.2-0.7,2.7-0.8,4.3c-0.2,2.4-0.1,4.4,0.2,6c0.8,1.7,1.6,3.5,2.3,5.2
		c0.4,0.5,1.3,1.3,2.6,1.8c1.5,0.6,2.8,0.6,3.4,0.5c0.6-0.2,1.5-0.6,2.4-1.5c0.6-0.6,1-1.3,1.2-1.7c1.3,0.9,2.5,1.7,3.8,2.6
		c1,0.1,2.4,0.2,4.1-0.2c1.4-0.3,2.5-0.8,3.3-1.2c0.5-0.5,1.4-1.6,1.9-3.3c0.4-1.3,0.3-2.4,0.2-3.1c-0.1-2-0.2-4-0.3-6
		c-0.3-1.4-0.7-2.9-1-4.3c-1.7-0.5-3.4-1-5.1-1.5l-3.8-1l-3.1,0.5l-3.4,0.8l-3.1,1.1L240.2,391.9z"/>
	<path class="st8" d="M240.4,372.6l-4.4,1.9l-3.6,2.9l-2.3,2.5l-1.5,1.6L228,384v3l2,2l2.5,1.6l6.9,2.3l2-1.4l4.6-1.1l5.5-1.4
		l3.6-0.3l3.8,1l4.5,1.4l5.7,0.8l3.5-2.4l1.6-3l0.1-3.3l-0.8-2.4l-1.9-2.8l-2.2-2l-2.2-1.3l-2.3-1.3l-2.1-1.2c0,0-3.2-0.9-3.4-1.1
		C259.1,370.9,240.4,372.6,240.4,372.6z"/>
	<polygon class="st8" points="159.5,447.4 156.2,447.5 152.6,448.2 149.2,449.6 145.7,451.6 143,453.6 140.5,456.7 139.7,458.5 
		139.7,460.9 140.9,462.5 142.8,463.4 143.4,464.9 144,466 146.1,467.1 149,467.3 152.4,466.3 154.3,464.6 157,462.3 159.5,460.3 
		160.8,458.5 160.1,451.4 	"/>
	<path class="st8" d="M342.4,456.4c0.3,0.2,2.9,2.8,2.9,2.8l4.2,3.2l4.4,2.1l3.8,0.2l2.6-1l2-1.9l0.7-2.7l-0.2-3.1l-2-4.5l-1.9-2.1
		l-2.9-2.1l-2.7-1.3l-3.2-0.9l-3.8-0.3l-4.3-0.5L342.4,456.4z"/>
	<path class="st8" d="M183.1,576l-3,1.7l-3.5,2.1c0,0-2.4,1.7-2.7,2c-0.3,0.3-2.8,2.4-2.8,2.4s-1.7,1.8-2,2.2s-1.5,2.4-1.5,2.4
		s-3.6,4,2.6,9.4l2.9,1.7l4,0.2l2.9-1l2.5-1.4l3.7-2.6l4.9-3.6l3.1-2l3.8-1.6h1.5l-4.5-4.5l-2.7-3.4l-3.8-2.9l-2.4-0.7L183.1,576z"
		/>
	<path class="st8" d="M308.2,583.3"/>
	<path class="st8" d="M309.1,584.9l3.2,3.6l3.8,4.3l4.7,4.3l5.5,2.3h5.4l2.4-2.2l1.8-3.5v-3.1l-1.2-4.9L333,583l-1.9-3.5l-3.4-3.5
		l-3.1-1.3c0,0-3.2-0.7-3.4-0.7c-0.2-0.1-6.7,1.6-6.7,1.6l-3.2,2l-2.7,2.9L309.1,584.9z"/>
	<path class="st9" d="M156.5,591.9c0.1,0.3,1.9,4.3,1.9,4.3l3.2,3.8c2.6,2.1,7.9,5.9,15.6,7.3c6.3,1.1,11.2,0,13.5-0.5
		c3.2-0.7,8-1.8,12.7-5.6c3.6-2.9,5.5-6.3,6.6-8.3c-0.4,1.7-0.7,3.3-1.1,5c-0.5,1.3-1.2,2.9-2.5,4.6c-1.2,1.7-2.6,3-3.6,3.8
		c-1.8,1.5-4.5,3.4-8.3,4.9s-7.1,1.9-9.4,2.1c-2.3,0.2-5.5,0.1-9.2-0.7c-4-0.9-7-2.4-9-3.6c-2.2-1.3-5-3.5-7.4-6.8
		c-1.4-1.9-3.1-4.4-3.2-7.8C156.2,593.4,156.3,592.5,156.5,591.9z"/>
	<path class="st9" d="M294.8,591.9c0.1,0.3,1.9,4.3,1.9,4.3l3.2,3.8c2.6,2.1,7.9,5.9,15.6,7.3c6.3,1.1,11.2,0,13.5-0.5
		c3.2-0.7,8-1.8,12.7-5.6c3.6-2.9,5.5-6.3,6.6-8.3c-0.4,1.7-0.7,3.3-1.1,5c-0.5,1.3-1.2,2.9-2.5,4.6c-1.2,1.7-2.6,3-3.6,3.8
		c-1.8,1.5-4.5,3.4-8.3,4.9s-7.1,1.9-9.4,2.1c-2.3,0.2-5.5,0.1-9.2-0.7c-4-0.9-7-2.4-9-3.6c-2.2-1.3-5-3.5-7.4-6.8
		c-1.4-1.9-3.1-4.4-3.2-7.8C294.6,593.4,294.7,592.5,294.8,591.9z"/>
	<path class="st9" d="M124.4,376.6c-0.6,4.7-1.1,9.8-1.3,15.3c-0.3,5.5-0.3,10.7-0.1,15.5c0.1,3.3,0.4,7.9,0.9,13.4
		c0.5,5.9,1.1,13.2,2.7,22.2c1,6,2.7,14,5.4,23.2c1.1,4.2,2.7,9.1,4.7,14.7c3,8.2,5.9,14.3,7.2,17.2c2.9,6,6.8,13.2,12,21.1
		c3.4,5,6.7,9.3,9.5,12.7c5,6.1,9.2,10.5,11.4,12.7c3.9,3.9,6.5,6.2,7.7,7.2c2.3,1.9,4.2,3.5,5.8,4.6c5,3.7,11.4,7.8,19.1,11.3
		c15,6.8,28.8,8.6,38.1,9c5.2,0.1,12.1-0.2,20.1-1.7c2.6-0.5,12.9-2.6,25.2-8.7c9.5-4.7,17-10.1,22.7-15c3.6-3.1,7.3-6.6,11-10.5
		c17.6-18.5,27.7-38.6,33.7-54.8c-5.8,13-14.4,28.3-27.6,43.1c-3.4,3.8-6.8,7.3-10.2,10.5c-2.5,2.3-5.9,5.3-10.1,8.5
		c-8.4,6.3-15.8,10-19,11.6c-3.6,1.7-9.9,4.7-18.8,7c-5.6,1.4-13.3,2.8-22.6,2.9c-4.6,0-10.1-0.3-16.2-1.3c-6.2-1-11.6-2.6-16.1-4.1
		c-5.4-1.9-9.9-3.9-13.3-5.7c-7.3-3.7-12.5-7.4-16-10c-3.3-2.4-5.3-4.1-6.4-5.1c-2.8-2.4-5-4.7-6.6-6.4c-1.8-1.4-4.5-3.7-7.2-6.9
		c-1-1.2-1.7-2.1-2.2-2.8c-4.6-6.3-6.5-8.2-9.4-12.2c-3.4-4.6-5.4-8.2-8.2-13.3c-3.7-6.6-6.1-11.8-7.5-14.9
		c-2.9-6.5-4.8-11.7-5.5-13.6c-1.5-4.1-2.7-7.7-3.5-10.7c-2.2-7.5-3.7-14.3-4.9-20.4c-0.6-3.1-2.1-11-3.2-21.2
		c-0.4-3.9-0.8-7.4-1-12.2c-0.3-6.3,0-9.2,0-18.8C124.5,387.1,124.5,382.4,124.4,376.6z"/>
	<path class="st10" d="M128.2,325.7h-2.3l-2.9,1.1l-2.1,2.5l-1.1,3.7c0,0-0.7,5.9-0.4,6.2c0.3,0.3,0.4,6.6,0.4,6.6s0.2,6.8-0.1,7.3
		s-0.3,5.2-0.3,5.2l0.7,4.3l2.3,2.1l2.1,0.6h1.2l1.5-7l1.5-6.1l0.7-3.4C129.5,348.9,127.6,340.6,128.2,325.7z"/>
	<path class="st10" d="M94.6,348.4l-1.6-0.6l-2.1,0.3l-2,1.5l-0.7-1.6l0.3-2.9l0.7-3.1l1.9-3.2l2.3-2.2l2.9-1.7l4.6-1l4.3,0.5
		l3.2,1.5l2.6,2.1c0,0,2.2,3.1,2.3,3.3c0.1,0.2,0.8,2.1,0.9,2.6c0.1,0.4,0.5,3.1,0.5,3.1l-0.2,1.7l-1.2-1.7l-1.6-0.9
		c-0.3-0.1-0.9-0.4-1.7-0.3c-0.9,0.1-1.6,0.5-1.8,0.7c-0.3-0.8-0.6-1.6-0.8-2.5l-1.6-2l-1.7-1.1l-2.6-0.5h-1.6l-2.1,1.1l-1.7,1
		l-0.7,1.8l-0.6,2.3L94.6,348.4z"/>
	<path class="st10" d="M89,351.5c0,0.1,1.6,3.1,1.6,3.1l2.1,2.4c0,0,9,7.7,17.5,0c0,0,4-3.6,4.3-8.2c0,0-2.5-4.6-6.3-2
		c0,0-0.6,5.2-3.9,6.4c0,0-5.8,2-7.7-1.4l-2-3.4l-3-0.6l-2,1l-0.5,0.9v1.8H89z"/>
	<path class="st11" d="M116.5,353.8c0,0-4-8.5-0.8-15.7l3.4,0.3l0.5,3.4l0.3,7.5l-0.5,4.5H116.5z"/>
	<path class="st12" d="M228.4,538.2c0.6,1.9,2.2,6.6,6.7,10.5c1,0.9,6.8,5.6,15.3,5.1c7-0.5,11.5-4.3,13.1-5.6
		c5.2-4.5,6.9-10,7.5-12.1c-0.3,1.8-0.9,4.2-1.9,7c-0.8,2.2-2.2,6.1-5.1,9.6c-1.3,1.7-7.5,9.3-16.6,8.8c-0.9,0-6.3-0.4-10.5-4.3
		c-1.9-1.8-3-3.8-4.3-6.2c-1.6-3-2.5-5.7-2.9-7.2C229.1,541.5,228.7,539.6,228.4,538.2z"/>
	<polygon class="st13" points="235.5,533.5 236.6,537.7 239.3,542 242.7,544.2 247,545.4 252,544.9 256.6,542.8 260.5,539.7 
		263.4,536.1 265.3,532.8 266,528.8 260.3,522.4 254,522.6 245.3,523.7 236.8,526.2 	"/>
	<path class="st14" d="M362.3,304.3c0,0,5.1-3.7,8.1,1.5l3.7,16.7l1.7,8.2l-0.4,5.4l-2.2,2.7l-3,1.3l-1.3-4.5l-2.2-6.6l-0.5-4.4
		c0,0,0-4.3-0.5-4.9c-0.4-0.6-1-5.4-1-5.4L363,310L362.3,304.3z"/>
	<polygon class="st14" points="378.3,317 377.9,312.6 379.3,308.6 381.6,305.7 383.9,303.9 388.7,301.9 392.7,301.9 396.4,303.4 
		399.7,305.7 402,308.6 403,310.3 403,311.6 401.4,311.7 398.9,312.6 397.6,313.6 395.9,311.1 394,309.4 390.7,308.6 389,308.8 
		386.5,310 385,311.7 383.9,315.3 380.9,315.6 	"/>
	<path class="st14" d="M383.8,316.1c0.4,0.5,0.3,0.9,0.8,2c0.3,0.7,0.7,1.2,1,1.5c0.9,0.6,1.8,1.3,2.7,1.9l4.2,0.2l2.4-1.2l1.6-1.9
		l0.9-3.4l0.3-1.7l2.7-1.6l2.7-0.5l0.9,2.7c-0.1,1-0.2,2-0.3,3c-0.1,1-0.4,3.2-1.8,5.4c-1.6,2.4-3.7,3.6-4.6,4.1
		c-1.1,0.6-3.3,1.6-6.3,1.6c-2.5,0.1-4.4-0.6-5.5-1c-0.8-0.3-2-0.9-3.1-1.9c-1.5-1.2-2.4-2.6-2.9-3.5c-0.3-0.6-0.7-1.5-0.9-2.6
		c-0.3-1.2-0.4-1.9-0.1-2.4c0.5-0.9,1.7-1.1,2.6-1.2C381.7,315.6,383.1,315.4,383.8,316.1z"/>
	<path class="st11" d="M372.5,311.3c0.4-0.8,1.2-1.1,1.3-1.2c0.2-0.1,0.9-0.3,1.6,0.1c0.2,0.1,0.6,0.3,1.1,1.7
		c0.3,0.8,0.5,1.4,0.6,2.3c0.2,0.9,0.3,1.7,0.5,2.8c0.4,2.6,0.4,2.4,0.5,3.1c0.3,1.2,0.4,1.5,0.6,2.6c0.2,1.4,0.1,1.9,0,2.1
		c-0.1,0.3-0.4,1.2-1.3,1.7c-0.1,0-1,0.5-1.8,0c-0.3-0.2-0.5-0.5-0.8-1c-0.5-1.2-0.6-2.2-0.7-2.7c-0.1-0.8,0,0.1-0.6-3.3
		c-0.7-3.6-0.5-3.3-0.7-4c-0.2-0.6-0.5-1.5-0.6-2.7C372.3,312.1,372.3,311.7,372.5,311.3z"/>
	<path class="st15" d="M157.5,409.5c-1.2-1.6-2.4-3.2-3.7-4.8c-1.7-2.1-3.4-4.3-5.2-6.4c-1.4-2.1-2.7-4.3-4.1-6.4
		c-1.2-1.8-2.4-3.6-3.6-5.4c-1.5-3.2-3-6.5-4.5-9.7c-1.9-4.2-3.8-9.4-5.2-15.5c-1-4.5-1.6-8.7-1.8-12.4c-0.9-5-1.4-10.8-1.3-17.4
		c0.3-15.7,4.7-28.3,8.4-36.5c4.1-9.2,12.7-25.5,29.6-40.4c16.6-14.6,33.6-21,43.2-23.9c10.9-3.5,32.7-8.8,59.5-4.3
		c23.1,3.9,39.8,13.4,49.1,19.5c7.1,5.1,16,12.7,24.7,23.4c7.7,9.5,12.8,18.7,16.3,26c2.1,5.7,4.1,12.4,5.6,20.2
		c2.2,11.8,2.3,22.1,1.8,30.2c-0.6,5.4-1.6,11.9-3.7,19c-2.2,7.5-4.9,13.8-7.4,18.8c-1.7,3.1-3.6,6.3-5.7,9.6
		c-2.6,4.1-5.2,7.8-7.7,11.3c-0.7-12.7-1.4-25.4-2.2-38.1l-2.1-15.6c1.6-0.2,5.8-1,9.5-4.5c4.5-4.2,5.3-9.3,5.4-10.8
		c0.4-1.8,1-5.3,0-9.5c-1-4.5-3.3-7.5-4.5-8.9c-1.1-1.3-3.6-3.9-7.7-5.3c-4.8-1.8-9-1-10.7-0.6c-2.2,0.2-4.8,0.6-7.7,1.5
		c-2.7,0.8-4.9,1.7-6.7,2.7c-3.8-2.9-8.6-6.2-14.5-9.1c-4.6-2.3-9-3.9-12.8-5.1c-5.6-1.4-12.8-2.8-21.2-3.1
		c-7.3-0.3-13.7,0.3-18.9,1.1c-6.9,0.3-14.3,0.9-22.3,2c-6.8,0.9-13.1,2.1-18.9,3.4c-3.7,1.2-8,3-12.7,5.7
		c-5.6,3.2-9.9,6.6-13.1,9.6c-1.4-1.2-4.4-3.3-8.8-4.2c-3.5-0.7-6.4-0.3-8.1,0.1c-1.7,0-4.2,0.3-7,1.3c-4.2,1.5-6.8,4.1-8.2,5.5
		c-1.2,1.2-3.1,3.2-4.4,6.3c-1.6,3.7-1.7,7-1.6,8.8c0.2,1.7,0.8,4.9,2.9,8.2c2.1,3.4,4.8,5.4,6.3,6.3c1.3,0.7,3,1.6,5.2,2.1
		c1.9,0.5,3.5,0.7,4.9,0.8c-1.5,6.7-2.9,14.1-3.7,22.3C156.9,389.3,156.9,400.2,157.5,409.5z"/>
</g>
<g id="Layer_4">
	<path class="st16" d="M132,457.9c-2.5-9.5-4.8-20.4-6.2-32.7c-1.9-15.9-2-30.2-1.2-42.2c0.4-8.5,1.5-18.2,3.5-28.7
		c2.7-13.9,6.6-26,10.5-35.8c3-8.6,7.8-19.9,15.4-32.1c3.9-6.2,10-15.9,20.6-26.4c6.4-6.4,16.3-14.9,30.2-22.4
		c5.3-2.2,10.6-4.4,16-6.6c9.1-3,23.5-6.4,40.8-4.4c32.9,3.8,54,24.4,63.5,33.7c7.6,7.5,18,19.4,26.6,36.9c2.5,5.3,5.1,10.6,7.6,16
		c6.4,13.4,8.5,24.6,10.3,31.9c4.8,19.5,6.1,34.9,6.4,39.4c1.5,20.6-0.1,37-1.1,45.1c-2.8,22-8.5,41.2-15.1,57.3
		c-4.4,9.9-11.2,22.8-22,36c-13.7,16.8-28.3,27.5-38.8,34c-6.8,4.1-17,9-30,11.6c-23.3,4.6-42.4-1-51.4-4.3c-7.3-2.9-15.7-7-24.3-13
		c-21.8-14.9-34-33.5-40.4-45.4c-3.8-6.4-7.7-13.7-11.4-22C137.2,474.4,134.2,465.7,132,457.9z"/>
	<path class="st17" d="M156.5,591.9l-0.4-5.9l3.6-8l5.5-4l7.4-3.8l6.5-1.9l7.1,0.1l6.4,1.4l7.3,3.4l6.2,4.7l3.3,5.3l0.8,4.7
		l-0.3,4.9l-2.6,3.9l-3.6,4L197,605l-6.3,1.8l-7.5,0.9l-7.9-0.8C175.2,606.9,160.8,604.8,156.5,591.9z"/>
	<polygon class="st17" points="295.3,593.2 294.4,590.9 294.8,586 297.1,581.1 300.5,576.8 304.4,574 308.4,571.7 314,569.7 
		320.6,569 327.1,569 333.2,570.7 340.5,574.9 345,579.6 347.8,583.3 348.7,588.1 348.7,590.9 346.9,595 344.6,598.5 339.9,602.7 
		334.9,605.2 328.6,607.1 321.5,607.8 314.9,607.2 309.9,605.9 305,603.7 300.9,600.8 297.3,596.8 	"/>
	<path class="st14" d="M207.4,579.6l-1.6-5.7l-1-8c0,0-32.6-19.9-46.8-44.1l0.8,9.8l2.5,11.9l3.1,9.4l3.1,6.3l4.5,7.4l1.8,2.3
		l6.6,8.5l2.7-1.3l4.3,0.5l3.4,2.4l2.3,2.7l2.6,2.5l3,3.3l3.3,2.8l5.3,1.7l2.5,1l0.3-6.5L207.4,579.6z"/>
	<polygon class="st14" points="302.9,560.9 302.7,566 301.7,570.9 300.2,576 297.3,580.3 294.7,585.2 294.7,589.4 302.9,587.9 
		308.2,584.4 308.5,580.5 312.6,577 317,574.6 322.1,574 325.4,574.7 331.6,565.1 336.8,555.4 340.1,546.3 343.3,536 343.5,527.4 
		344.1,519.3 339.2,525.3 332.5,533.9 327.7,539.4 321.5,545.7 315.8,551.2 308.6,556.7 	"/>
	<path class="st11" d="M206.8,578l-1.5-6.3l-0.5-6.3c0,0,21,11.1,41.7,11.2c0,0,20,1.4,40.8-7.9l15.5-7.9l-0.2,5.1l-1.2,5.7
		l-1.3,4.3l-3.9,5l-1.8,5.7l0.2,2.7l-36.6,6l-29.6,1.3l-8.2-1.1l-10.3-2.8l0.3-4.9l-1.5-6.4L206.8,578z"/>
	<polygon class="st11" points="77.1,263.2 83.8,257.2 95.4,244.8 103.7,235.1 98.4,236.2 90,237.1 82,240.3 71.6,242.4 64.2,244.8 
		60.2,247.1 60.6,247.8 63,250.8 	"/>
	<polygon class="st11" points="101.3,287.6 131.3,259.2 120.7,299.3 118,305.7 116.8,305.3 	"/>
	<path class="st5" d="M77.1,263.2l47-50.7c0,0,22.7-22.9,51.7-30.3c0.1,0.7,0.6,2.5,2.3,4.1c1.6,1.6,3.5,2,4.2,2.1
		c-2.9,7.4-6.8,15.9-12.3,24.9c-8.2,13.5-17.3,23.7-24.9,31c-14.6,14.5-29.1,28.9-43.7,43.4L77.1,263.2z"/>
	<polygon class="st14" points="71,257.1 92.1,237.5 78.4,240.9 65.8,252.1 	"/>
	<path class="st14" d="M106.5,293.1l20.7-19.2l-3.6,14.3c-2.3,2-4,3.7-5.2,5c-1.4,1.5-2.6,3-4.9,4.3c-0.9,0.5-1.6,0.9-2.2,1.1
		C109.8,296.8,108.2,295,106.5,293.1z"/>
	<path class="st6" d="M170.1,187.5l-2.6,1.5c-0.8,1-1.6,2.1-2.4,3.1c-0.1,0.8-0.2,1.5-0.3,2.3c0.5,0.5,1,0.9,1.5,1.4
		c1,0,2-0.1,3-0.1c-0.1,0.7-0.2,1.4-0.3,2.2c0.2,0.5,0.5,1,0.7,1.5c0.2,0.1,1.5,0.9,3.1,0.4s2.3-1.9,2.4-2.1c0.8-1,1.5-2,2.3-3
		c-0.4-0.3-1-0.7-1.5-1.4c-0.8-1.1-0.5-1.6-1.1-2.3c-0.9-1-2-0.6-3.4-1.6C170.8,188.7,170.3,188,170.1,187.5z"/>
	<path class="st6" d="M149.2,212.4l-1.4-5.2l3.8-3.9h4.7c0,0,4.3,3.6,3.8,3.9c-0.5,0.3,0.2,4.4-0.4,4.4c-0.6,0-3.7,3-4.4,3
		s-4.6-0.3-4.6-0.3L149.2,212.4z"/>
	<path class="st6" d="M134.1,225.9v-4l3.4-2.5h4.4l1.9,2.8c0,0,0.2,3.3-0.4,3.8c-0.6,0.4-3.6,2.8-3.6,2.8l-4-0.9L134.1,225.9z"/>
	<polygon class="st6" points="124,238.9 125.8,237.1 128.7,238 128.1,240.9 125.8,242.4 123.7,240.9 	"/>
	<polygon class="st6" points="113.2,230 113,228.7 114.7,226.9 116.3,226.9 116.2,228.7 114.2,230 	"/>
	<polygon class="st6" points="126.9,216.4 127.3,214.7 129,213.1 130.9,212.5 130.9,213.9 129.6,215.6 127.9,216.8 	"/>
	<polygon class="st6" points="140.8,204.1 141.9,201.9 144.6,199.8 147,197.9 149.2,197.4 148.9,198.6 146.9,200.8 145.1,202.2 
		142.7,203.3 	"/>
	<path class="st11" d="M87.8,274c1.8-1.9,3.6-3.9,5.3-5.8l9.1-7.8l6.4-7l4.5-4.6c1.5-1.3,3-2.5,4.5-3.8c0.7,0,1.3,0.1,2,0.1
		c0.1,0.1,0.7,0.7,0.8,1.6c0.1,1.3-1,2.1-1.1,2.1c-0.8,0.9-1.7,1.9-2.5,2.8c-0.9,1-1.9,2.1-2.8,3.1c-1.3,1.2-2.7,2.5-4,3.7
		c-1.4,1.3-2.7,2.5-4.1,3.8c-1.4,1.2-2.8,2.5-4.2,3.7c-1.4,1.4-2.7,2.7-4.1,4.1c-1.3,1.1-2.6,2.1-3.8,3.2c-1.1,1.2-2.2,2.4-3.3,3.7
		C89.6,275.8,88.7,274.9,87.8,274z"/>
	<polygon class="st8" points="113.4,224 111.2,223.8 108.9,224 107.1,222.5 105.9,221.2 106.2,220 106.6,219.5 106.1,219 
		106.6,217.4 108.8,216.9 111.8,216.6 114.7,217.7 116.7,219.8 116.7,220.5 115.1,222.2 	"/>
	<polygon class="st8" points="140.8,249 140.9,251.4 142.1,254.1 142.9,255.5 143.8,256.6 145.1,257 147,256.4 148.3,254.6 
		148.8,253 148.8,250.9 148.3,249.1 147.3,248.1 146.2,246.5 144.6,244.8 	"/>
	<polygon class="st8" points="171.2,183.4 170.1,184.9 169.7,186.4 169.6,187.6 170.4,188.6 171.5,189.3 173.8,190 174.9,190.9 
		175.8,192.3 176.4,193.7 177,194.6 178.4,194.6 180,193.7 180.9,192.7 182.6,188.6 182.2,186.8 178,183.8 175.7,182.2 	"/>
	<polygon class="st13" points="64.8,247.8 64.2,246.8 65.5,246.9 66.3,246 66.5,247.1 67.7,247.8 66.6,248.4 66.5,249.5 65.7,248.9 
		64.2,249.1 	"/>
	<polygon class="st13" points="116,299.2 115.4,298.2 116.8,298.4 117.7,297.4 117.8,298.6 118.8,299.2 117.9,299.7 117.9,301 
		116.8,300.2 115.4,300.5 	"/>
	<path class="st17" d="M77.1,262.9c0.3-0.1,3.2-2.6,3.2-2.6l10.6,10.1l-3.3,3.3L77.1,262.9z"/>
	<path class="st17" d="M90.4,276.7l11,11.5l3.5-3.3c-3.8-3.8-7.6-7.6-11.4-11.4C92.5,274.5,91.5,275.6,90.4,276.7z"/>
	<polygon class="st17" points="117.9,219.2 145,244.2 158.4,229.6 132.6,204.8 	"/>
	<polygon class="st17" points="150.7,191.9 171.2,211.1 175.8,204.1 180,193.7 178.4,194.6 177.5,194.6 175.3,197.5 172.9,199.7 
		171.2,199.5 169.8,199.3 169.1,197.8 169.4,195.6 167.3,195.8 165.4,195.1 164.7,193.7 165.9,190.6 168.4,188.4 169.6,187.6 
		169.7,186.4 171.2,183.4 165.4,185.5 158.8,188.4 	"/>
</g>
<g id="Layer_6">
	<path class="st11" d="M113,301.4l-1.8,0.9l-1.8,1.9l-1.2,1.8l-1.6,1.4l-1.6,1.8l-1.7,0.9h-2l-2,1l2.5,0.7c1.4-0.2,2.8-0.4,4.2-0.6
		c0.8-0.5,1.5-1,2.3-1.4l3-3.3l1.6-2.2l1.8-1.3c-0.1-0.3-0.2-0.7-0.4-1C113.8,301.8,113.4,301.6,113,301.4z"/>
	<path class="st14" d="M26.8,424.9l-3.4-4.4l-1.7-4.2l-1.2-4.1l-0.6-3.9l-0.2-4.9l0.6-6.3l1.3-6.2l1.9-5.9l3.4-9.9l5.7-9.7l7.7-10.4
		l8.5-7.8l11.4-7l6.6-5.2l2.9-4.3l1.9-8.9l1.7-7.6l2.1-4.3l4-2.4l5.6-0.2l2.9,1.1l-4.7,0.4l-3.8,1l-2.2,2.4c0,0-1.5,2.2-1.4,2.6
		c0.1,0.5-0.4,3.6-0.4,3.6l-1.1,4.9c0,0-0.6,4.1-0.6,4.4c-0.1,0.3-2,5.5-2,5.5l-3.8,4.4l-4.9,3.6l-6.7,4l-4.5,2.9l-6.1,5.2l-5.4,6.2
		l-4.8,7.9l-4.1,6.1L24.8,389l-2.1,10.4l-0.3,6.8l0.3,5.1l2,7.2l2.1,4.5l2.1,3.9L26.8,424.9z"/>
	<polygon class="st11" points="37.6,429.7 42,428.3 44.4,425.8 46.2,422 45.8,419.1 44.5,416.4 43,414.7 46.2,416.2 47.9,418.6 
		49,421.5 48.6,424.7 47.1,427.4 44.9,429.3 42.4,430.4 39.4,430.8 	"/>
	<path class="st11" d="M35.4,412.4l-8.6,2.6l-4.6,2.6l-9.7,6.9l-6.7,7.2l-3.3,5.1l-2.4,5l-1.8,6.6c0,0-1.9,17.9,8.3,26.2H5.1
		l-2.4-2.3l-3.6-4.3c0,0-7.7-11.7-1.1-29.3l5.8-8.7l7-7.2l8.9-6.4l7.1-3.6l6.1-1.5L35.4,412.4z"/>
	<polygon class="st14" points="25.2,479.8 32.9,477.8 43.3,474.6 50.1,470.5 60.1,464.1 68.7,457.4 77.8,448.7 84.8,440.9 
		93.7,429.3 100.6,418.4 107.6,404.7 112,393.9 115,385.1 119.7,362.9 123.1,364.7 121.8,368.7 117.9,385.4 114.5,395.3 
		111.3,403.5 104.4,417.3 100.4,424.2 93.1,434.8 84.9,445 76.9,453.3 66.9,462.1 57,469.1 47.4,474.3 39.7,477.5 32.1,479.8 
		27.7,480.5 	"/>
</g>
<g id="Layer_2">
	<g>
		<g>
			<path class="st18" d="M239.6,373.3c0.4-1.1,0.2-1.4-0.7-0.9c-0.3,0.1-0.7,0.2-1,0.2c-0.8,0.2-1.5,0.8-2.2,1.3
				c-1.7,1.1-3.3,2.4-4.7,3.9c-2.1,2.2-4.5,5.4-3.7,8.7c0.9,3.5,5.2,5.5,8.5,6c6.6,1,12.6-3.3,19.2-3c6.5,0.3,18.9,7.2,19.9-4.3
				c0.7-8-9.4-12.3-15.4-14.6c-0.8-0.3-1.1,0.9-0.3,1.2c5.6,2.1,16.1,6.5,14.4,14.2c-2.1,9.2-12.8,2.5-18.5,2.3
				c-8-0.3-18.3,7.3-25.1,0.1c-5.7-6.1,5.9-13.5,10.6-15.1c0.5-0.2,0.6-0.7,0.3-1c-0.4-0.4-1-0.1-1.5-0.1
				C238.5,372.2,238.8,373.4,239.6,373.3L239.6,373.3z"/>
		</g>
	</g>
	<path class="st19" d="M243.5,347.1c0-15.4-12.5-27.9-27.9-27.9s-27.9,12.5-27.9,27.9s12.5,27.9,27.9,27.9S243.5,362.5,243.5,347.1z
		"/>
	<path class="st18" d="M263.4,369.9c0-3.8-5.6-6.9-12.5-6.9s-12.5,3.1-12.5,6.9c0,3.8,5.6,6.9,12.5,6.9S263.4,373.7,263.4,369.9z"/>
	<path class="st18" d="M206.2,345.1c0,5,4.1,9.1,9.1,9.1s9.1-4.1,9.1-9.1s-4.1-9.1-9.1-9.1C210.3,336,206.2,340,206.2,345.1z
		 M221.1,341.4c0,1.4-1.2,2.6-2.6,2.6s-2.6-1.2-2.6-2.6s1.2-2.6,2.6-2.6C220,338.8,221.1,340,221.1,341.4z"/>
	<g>
		<g>
			<path class="st18" d="M251.4,389.2c1.1,5,1.3,12.5-1.5,17c-2.7,4.2-7.9,1.9-9.3-2.2c-1.3-3.7-0.6-8.1,0.4-11.8
				c0.2-0.8-1-1.1-1.2-0.3c-1.1,4.3-1.9,9.6,0.1,13.8c1.5,3,5.3,5.2,8.6,3.6c6.1-3,5.3-15.1,4.2-20.4
				C252.5,388.1,251.3,388.4,251.4,389.2L251.4,389.2z"/>
		</g>
	</g>
	<g>
		<g>
			<path class="st18" d="M233.3,513.4c0.6,11.5-1.1,35.1,17.2,32.4c16.2-2.4,18.5-22,19.8-34.9c0.1-0.8-1.2-0.8-1.2,0
				c-1.2,12.2-2.9,29.6-17.4,33.4c-18.2,4.7-16.5-20-17.1-30.9C234.5,512.6,233.2,512.6,233.3,513.4L233.3,513.4z"/>
		</g>
	</g>
	<g>
		<g>
			<path class="st18" d="M236.6,532.1c0.7-3.9,4.6-7.1,8.7-6.1c4,1,6.1,5.6,4.9,9.4c-0.2,0.8,1,1.1,1.2,0.3
				c1.4-4.4-1.1-9.7-5.8-10.9c-4.7-1.2-9.4,2.4-10.2,6.9C235.2,532.6,236.4,532.9,236.6,532.1L236.6,532.1z"/>
		</g>
	</g>
	<g>
		<g>
			<path class="st18" d="M227.1,533.7c1.7,12.4,7.5,31,23.8,28.3c15.5-2.6,19.9-20,22.3-33c0.1-0.8-1.1-1.1-1.2-0.3
				c-2.3,12.4-5.8,28-19.9,31.8c-16.3,4.4-22.2-15-23.8-27.1C228.1,532.5,226.9,532.9,227.1,533.7L227.1,533.7z"/>
		</g>
	</g>
	<g>
		<g>
			<path class="st18" d="M194,365.3c12.7,7.3,30.6,7.1,43.5,0.3c0.7-0.4,0.1-1.5-0.6-1.1c-12.5,6.6-29.9,6.7-42.2-0.3
				C193.9,363.8,193.3,364.9,194,365.3L194,365.3z"/>
		</g>
	</g>
	<g>
		<g>
			<path class="st18" d="M235.6,531.1c0.5-3.3,0.8-6.6,1-9.9c-0.4,0-0.8,0-1.2,0c-0.2,2.7-0.4,5.4-0.5,8.1c0.4,0,0.8,0,1.2,0
				c0-2,0.3-3.8,0.8-5.7c-0.4-0.1-0.8-0.1-1.2-0.2c-0.1,1.7-0.3,3.4-0.4,5.1c-0.1,0.7,1,0.8,1.2,0.2c0.4-1.2,0.7-2.4,1.1-3.6
				c-0.4-0.1-0.8-0.2-1.2-0.3c-0.3,1.2-0.6,2.1-1.1,3.2c0.4,0.2,0.7,0.4,1.1,0.6c0.5-1,1.1-1.8,1.9-2.5c-0.3-0.2-0.7-0.4-1-0.6
				c-0.5,1.4-1.1,2.4-2.1,3.6c-0.5,0.6,0.4,1.5,0.9,0.9c1-1.3,2.1-2.5,3.1-3.8c0.5-0.6-0.3-1.5-0.9-0.9c-0.7,0.8-0.7,0.7-1.3,1.6
				c-0.4,0.6,0.5,1.2,1,0.8c0.6-0.5,1.2-1,1.8-1.5c0.5-0.5-0.2-1.4-0.8-1c-0.5,0.2-1,0.4-1.4,0.6c0.2,0.3,0.4,0.7,0.6,1
				c0.7-0.4,1.3-0.7,2-1.1c-0.2-0.3-0.5-0.6-0.7-0.9c0-0.1,0.1-0.3,0.1-0.4c-0.2-0.3-0.5-0.6-0.7-0.9c-0.3,0.3-0.5,0.7-0.8,1
				c0.3,0.1,0.7,0.2,1,0.3c0-0.7,0-1.4,0.1-2.1c-0.4-0.1-0.8-0.1-1.2-0.2c-0.2,0.6-0.4,1.2-0.6,1.8c0.4,0.1,0.8,0.2,1.2,0.3
				c0-1.2,0-2.4,0.1-3.6c-0.4,0-0.8,0-1.2,0c0,1-0.1,2-0.1,3c0.4,0,0.8,0,1.2,0c-0.1-2-0.2-4-0.4-6.1c0-0.8-1.2-0.8-1.2,0
				c-0.2,1.8-0.4,3.5-0.5,5.3c0.4,0,0.8,0,1.2,0c-0.1-2.3-0.2-4.6-0.3-6.9c0-0.8-1.3-0.8-1.2,0c0.1,2.3,0.1,4.6,0.2,6.9
				c0.4,0,0.8,0,1.2,0c-0.3-2.8-0.7-5.6-1.2-8.4c-0.1-0.7-1.2-0.5-1.2,0.2c0,2.8,0.3,5.5,0.6,8.3c0.1,0.8,1.3,0.8,1.2,0
				c-0.3-2.7-0.6-5.4-0.9-8.1c-0.1-0.8-1.3-0.8-1.2,0c0.1,2.9,0.4,5.9,0.9,8.8c0.1,0.7,1.3,0.5,1.2-0.2c-0.2-2.6-0.4-5.3-0.7-7.9
				c-0.1-0.8-1.2-0.8-1.2,0c-0.1,1.6-0.1,3.2,0.1,4.7c0.4,0,0.8,0,1.2,0c-0.1-1.6-0.3-3.3-0.4-4.9c-0.1-0.8-1.3-0.8-1.2,0
				c0,1.3,0,2.6,0.1,3.9c0.4-0.1,0.8-0.1,1.2-0.2c-0.3-1-0.3-2-0.2-3.1c-0.4,0-0.8,0-1.2,0c0.1,1.5,0.2,2.8,0.6,4.2
				c0.2,0.8,1.4,0.4,1.2-0.3c-0.3-1.3-0.5-2.5-0.6-3.9c0-0.8-1.2-0.8-1.2,0c-0.1,1.2,0,2.2,0.3,3.4c0.1,0.7,1.2,0.5,1.2-0.2
				c0-1.3,0-2.6-0.1-3.9c-0.4,0-0.8,0-1.2,0c0.1,1.6,0.3,3.3,0.4,4.9c0.1,0.8,1.3,0.8,1.2,0c-0.1-1.6-0.1-3.2-0.1-4.7
				c-0.4,0-0.8,0-1.2,0c0.3,2.6,0.5,5.3,0.7,7.9c0.4-0.1,0.8-0.1,1.2-0.2c-0.4-2.8-0.7-5.6-0.8-8.4c-0.4,0-0.8,0-1.2,0
				c0.3,2.7,0.6,5.4,0.9,8.1c0.4,0,0.8,0,1.2,0c-0.4-2.8-0.6-5.5-0.6-8.3c-0.4,0.1-0.8,0.1-1.2,0.2c0.5,2.7,0.9,5.3,1.2,8
				c0.1,0.8,1.3,0.8,1.2,0c-0.1-2.3-0.1-4.6-0.2-6.9c-0.4,0-0.8,0-1.2,0c0.1,2.3,0.2,4.6,0.3,6.9c0,0.8,1.2,0.8,1.2,0
				c0.2-1.8,0.4-3.5,0.5-5.3c-0.4,0-0.8,0-1.2,0c0.1,2,0.2,4,0.4,6.1c0,0.8,1.2,0.8,1.2,0c0-1,0.1-2,0.1-3c0-0.8-1.2-0.8-1.2,0
				c-0.1,1.2-0.1,2.4-0.1,3.6c0,0.6,0.8,0.9,1.2,0.3c0.5-0.8,0.7-1.5,0.8-2.4c0.1-0.7-1-0.8-1.2-0.2c-0.3,1-0.4,1.7-0.1,2.8
				c0.1,0.5,0.7,0.6,1,0.3c0.8-0.6,0.6-0.4,1-1.3c0.2-0.4-0.1-1.1-0.7-0.9c-3.4,1.3,0,4.8,1.3,2.2c0.2-0.5-0.2-1.1-0.7-0.9
				c-1.1,0.3-1.8,0.6-2.6,1.4c-0.5,0.5,0,1.1,0.6,1c1.1-0.2,0.8-0.1,1.7-0.7c-0.3-0.3-0.5-0.7-0.8-1c-0.6,0.5-1.2,1-1.8,1.5
				c0.3,0.3,0.7,0.5,1,0.8c0.4-0.5,0.7-0.9,1.1-1.4c-0.3-0.3-0.6-0.6-0.9-0.9c-1,1.3-2.1,2.5-3.1,3.8c0.3,0.3,0.6,0.6,0.9,0.9
				c1-1.3,1.8-2.6,2.4-4.2c0.2-0.6-0.6-1-1-0.6c-0.9,0.8-1.5,1.7-2.1,2.8c-0.3,0.7,0.7,1.4,1.1,0.6c0.6-1.1,1-2.2,1.2-3.5
				c0.2-0.8-1-1.1-1.2-0.3c-0.4,1.2-0.7,2.4-1.1,3.6c0.4,0.1,0.8,0.1,1.2,0.2c0.1-1.7,0.3-3.4,0.4-5.1c0.1-0.7-1-0.8-1.2-0.2
				c-0.5,2-0.8,4-0.9,6.1c0,0.8,1.2,0.8,1.2,0c0.2-2.7,0.4-5.4,0.5-8.1c0.1-0.8-1.2-0.8-1.2,0c-0.2,3.2-0.6,6.4-1,9.6
				C234.3,531.6,235.5,531.9,235.6,531.1L235.6,531.1z"/>
		</g>
	</g>
	<g>
		<g>
			<path class="st18" d="M234.5,522.2c0.1,0.2,0.2,0.5,0.3,0.7c0.3,0.7,1.3,0.2,1.1-0.5c-0.1-0.4-0.2-0.9-0.3-1.3
				c-0.4,0.1-0.8,0.2-1.2,0.3c0.2,0.8,0.3,1.6,0.2,2.4c0.4,0,0.8,0,1.2,0c0-0.9,0-1.8,0-2.7c0-0.7-1.1-0.9-1.2-0.2
				c-0.1,0.7-0.1,1.3,0.2,1.9c0.3,0.7,1.5,0.4,1.2-0.3c-0.2-0.4-0.2-0.8-0.2-1.2c-0.4-0.1-0.8-0.1-1.2-0.2c0,0.9,0,1.8,0,2.7
				c0,0.8,1.2,0.8,1.2,0c0.1-0.9,0-1.9-0.2-2.8c-0.2-0.8-1.4-0.5-1.2,0.3c0.1,0.4,0.2,0.9,0.3,1.3c0.4-0.2,0.8-0.3,1.1-0.5
				c-0.1-0.2-0.2-0.5-0.3-0.7C235.3,520.8,234.2,521.5,234.5,522.2L234.5,522.2z"/>
		</g>
	</g>
	<g>
		<g>
			<path class="st18" d="M250.2,526.1c-0.3,0.1-0.6,0.3-1,0.4c0.4,0,0.7,0,1.1,0c0-0.2,0-0.3,0-0.5c-0.4,0.1-0.8,0.2-1.2,0.3
				c0.2,0.4,0.3,0.8,0.5,1.3c0.4-0.1,0.8-0.2,1.2-0.3c0-0.4,0-0.9,0-1.3c-0.4-0.1-0.8-0.1-1.2-0.2c0,0.3,0,0.6,0,0.9
				c0,0.6,0.9,0.8,1.2,0.3c0.4-0.7,0.5-1.5-0.4-1.7c-0.3-0.1-0.7,0.1-0.8,0.4c0,0.1-0.1,0.1-0.1,0.2c-0.1,0.3,0.1,0.6,0.3,0.7
				c0.1,0,0.1,0.1,0.2,0.1c0.2,0.1,0.6,0.1,0.8-0.1c0.5-0.3,0.9-0.6,1.4-0.9c-0.2-0.3-0.4-0.7-0.6-1c-0.2,0.3-0.5,0.6-0.8,0.8
				c0.3,0.2,0.7,0.4,1,0.6c0.1-0.3,0.1-0.5,0.2-0.8c0.1-0.4-0.2-0.8-0.6-0.8c-1.2,0-1.9-0.2-2.9-0.6c-0.6-0.3-1,0.6-0.6,1
				c0.3,0.3,0.6,0.7,1,1c0.3-0.3,0.5-0.7,0.8-1c-0.6-0.4-1.2-0.8-1.7-1.2c-0.2,0.4-0.4,0.7-0.6,1.1c0.5,0.3,1,0.7,1.3,1.2
				c0.2-0.3,0.4-0.7,0.6-1c-0.5-0.3-1-0.6-1.5-0.9c-0.3,0.3-0.5,0.7-0.8,1c0.5,0.4,1,0.7,1.5,1.1c0.2-0.4,0.4-0.7,0.6-1.1
				c-1-0.6-2-1.3-2.9-2.1c-0.2,0.3-0.4,0.7-0.6,1c0.7,0.2,1.4,0.5,2,0.9c0.2-0.4,0.4-0.7,0.6-1.1c-1.4-0.7-2.9-1.3-4.3-2
				c-0.6-0.3-1.3,0.5-0.8,1c1.1,1,2.3,1.4,3.8,1.3c0.8,0,0.8-1.2,0-1.2c-1.1-0.1-2.2-0.2-3.3-0.3c-0.7-0.1-0.8,1.1-0.2,1.2
				c1.1,0.2,2.2,0.5,3.3,0.7c0-0.4,0-0.8,0-1.2c-0.8-0.1-1.6-0.2-2.4-0.4c-0.2,0.4-0.3,0.8-0.5,1.1c1,0.2,1.9,0.3,2.9,0.5
				c0.1-0.4,0.2-0.8,0.3-1.2c-1.1-0.2-2.3-0.4-3.4-0.6c-0.7-0.1-1.1,0.8-0.5,1.1c1,0.5,1.9,0.9,3,1.1c0.1-0.4,0.1-0.8,0.2-1.2
				c-0.8,0.1-1.5,0-2.3-0.2c-0.1,0.4-0.2,0.8-0.3,1.2c1.1,0.2,2.2,0.3,3.2,0.5c0.7,0.1,1.1-0.8,0.5-1.1c-0.8-0.5-1.6-0.8-2.5-1.2
				c-0.1,0.4-0.1,0.8-0.2,1.2c1.8-0.2,3.7-0.4,5.5-0.6c-0.1-0.4-0.3-0.7-0.4-1.1c-0.6,0.5-1.3,1-1.9,1.5c-0.4,0.3-0.1,1.1,0.4,1.1
				c1.6-0.1,2.7-0.4,4-1.4c0.5-0.4,0.2-1.4-0.5-1.1c-0.9,0.3-1.8,0.6-2.6,0.9c-0.7,0.3-0.4,1.5,0.3,1.2c1.2-0.4,2.5-0.8,3.7-1.2
				c-0.1-0.4-0.2-0.8-0.3-1.2c-0.9,0.3-1.8,0.7-2.7,1c-0.8,0.3-0.5,1.3,0.3,1.2c1.1-0.2,2.2-0.4,3.3-0.7c-0.2-0.4-0.3-0.8-0.5-1.1
				c-0.8,0.4-1.7,0.7-2.5,1.1c-0.7,0.3-0.2,1.3,0.5,1.1c1.1-0.3,2.1-0.7,3.1-1.3c-0.3-0.3-0.5-0.7-0.8-1c-0.5,0.4-1,0.8-1.5,1.2
				c-0.6,0.5,0.2,1.3,0.8,1c0.7-0.4,1.4-0.7,2.2-0.9c0.6-0.2,0.6-1.3-0.2-1.2c-1.1,0.1-1.8,0.4-2.8,0.9c-0.6,0.4-0.2,1.3,0.5,1.1
				c1.4-0.3,2.8-0.8,4.1-1.5c0.5-0.3,0.3-1.2-0.3-1.2c-1.6,0.2-3.2,0.3-4.8,0.3c0.1,0.4,0.1,0.8,0.2,1.2c1.2-0.2,2.3-0.5,3.5-0.8
				c0.7-0.2,0.5-1.2-0.2-1.2c-2-0.2-4-0.4-6.1-0.5c-0.7-0.1-0.9,1.1-0.2,1.2c1.5,0.2,3.7,0.5,4.3-1.2c0.1-0.2,0-0.5-0.2-0.6
				c-0.1-0.1-0.1-0.1-0.2-0.2c-0.6-0.5-1.5,0.4-0.9,0.9c-0.9,0-1.9,0-2.8-0.1c-0.1,0.4-0.1,0.8-0.2,1.2c2,0.2,4,0.4,6.1,0.5
				c-0.1-0.4-0.1-0.8-0.2-1.2c-1.2,0.4-2.3,0.6-3.5,0.8c-0.7,0.1-0.5,1.2,0.2,1.2c1.6,0,3.2-0.1,4.8-0.3c-0.1-0.4-0.2-0.8-0.3-1.2
				c-1.3,0.6-2.5,1-3.8,1.4c0.2,0.4,0.3,0.8,0.5,1.1c0.7-0.2,1.4-0.5,2.1-0.7c-0.1-0.4-0.1-0.8-0.2-1.2c-0.9,0.3-1.7,0.6-2.5,1
				c0.3,0.3,0.5,0.7,0.8,1c0.5-0.4,1-0.8,1.5-1.2c0.6-0.4-0.2-1.4-0.8-1c-0.9,0.6-1.8,0.9-2.8,1.2c0.2,0.4,0.3,0.8,0.5,1.1
				c0.8-0.4,1.7-0.7,2.5-1.1c0.7-0.3,0.2-1.3-0.5-1.1c-1.1,0.3-2.2,0.6-3.3,0.7c0.1,0.4,0.2,0.8,0.3,1.2c0.9-0.3,1.8-0.7,2.7-1
				c0.7-0.3,0.4-1.5-0.3-1.2c-1.2,0.4-2.5,0.8-3.7,1.2c0.1,0.4,0.2,0.8,0.3,1.2c0.9-0.3,1.8-0.6,2.6-0.9c-0.2-0.4-0.3-0.8-0.5-1.1
				c-1.1,0.8-2,1.1-3.4,1.2c0.1,0.4,0.3,0.7,0.4,1.1c0.6-0.5,1.3-1,1.9-1.5c0.4-0.3,0.1-1.1-0.4-1.1c-1.8,0.2-3.7,0.4-5.5,0.6
				c-0.7,0.1-0.8,1-0.2,1.2c0.8,0.3,1.5,0.6,2.2,1.1c0.2-0.4,0.3-0.8,0.5-1.1c-1.1-0.2-2.2-0.3-3.2-0.5c-0.8-0.1-1.1,1.1-0.3,1.2
				c0.9,0.2,1.7,0.2,2.6,0.2c0.7,0,0.9-1.1,0.2-1.2c-1-0.2-1.7-0.5-2.7-1c-0.2,0.4-0.3,0.8-0.5,1.1c1.1,0.2,2.3,0.4,3.4,0.6
				c0.8,0.1,1.1-1.1,0.3-1.2c-1-0.2-1.9-0.3-2.9-0.5c-0.6-0.1-1.2,0.8-0.5,1.1c1.2,0.6,2.1,0.7,3.3,0.5c0.6-0.1,0.6-1.1,0-1.2
				c-1.1-0.2-2.2-0.5-3.3-0.7c-0.1,0.4-0.1,0.8-0.2,1.2c1.1,0.1,2.2,0.2,3.3,0.3c0-0.4,0-0.8,0-1.2c-1.1,0.2-2.1-0.2-2.9-1
				c-0.3,0.3-0.5,0.7-0.8,1c1.4,0.7,2.9,1.3,4.3,2c0.7,0.3,1.3-0.7,0.6-1.1c-0.8-0.5-1.5-0.8-2.3-1.1c-0.6-0.2-1,0.6-0.6,1
				c1,0.9,2,1.7,3.1,2.3c0.7,0.4,1.3-0.6,0.6-1.1c-0.5-0.4-1-0.7-1.5-1.1c-0.6-0.4-1.3,0.5-0.8,1c0.7,0.5,1.3,0.9,2.1,1.2
				c0.6,0.2,1-0.6,0.6-1c-0.5-0.6-1-1-1.6-1.4c-0.7-0.4-1.3,0.6-0.6,1.1c0.6,0.4,1.2,0.8,1.7,1.2c0.6,0.4,1.2-0.5,0.8-1
				c-0.3-0.3-0.6-0.7-1-1c-0.2,0.3-0.4,0.7-0.6,1c1.1,0.4,2.1,0.6,3.3,0.6c-0.2-0.3-0.4-0.5-0.6-0.8c-0.1,0.3-0.1,0.5-0.2,0.8
				c-0.2,0.6,0.6,1,1,0.6c0.3-0.2,0.6-0.5,0.8-0.8c0.4-0.4,0-1.3-0.6-1c-0.3,0.1-0.8,0.2-1.1,0.5c-0.1,0.1-0.2,0.1-0.3,0.2
				c-0.3,0.2-0.2,0.5,0.4,0.8c-0.3,0.1-0.5,0.3-0.8,0.4c-0.1,0-0.2-0.1-0.3-0.1C249.4,526,249.8,526.1,250.2,526.1
				c0-0.2,0-0.5,0-0.8c0-0.7-1.1-0.9-1.2-0.2c-0.2,1-0.2,1,0,2c0.1,0.8,1.3,0.4,1.2-0.3c-0.1-1,0-0.7-0.6-1.6
				c-0.4-0.5-1.1-0.3-1.2,0.3c-0.1,0.5,0,0.6,0.2,1.1c0.2,0.4,0.9,0.4,1.1,0c0.3-0.5,0.3-0.6,0.3-1.1c0-0.3-0.2-0.5-0.5-0.6
				c-0.5-0.1-0.7,0-1,0.3c-0.2,0.1-0.2,0.4-0.2,0.6c0,0.1,0,0.1,0.1,0.2C249.3,527.1,250.5,526.8,250.2,526.1L250.2,526.1z"/>
		</g>
	</g>
	<g>
		<g>
			<path class="st18" d="M239.2,525.4c1.8-0.5,3.6-1.1,5.4-1.6c-0.2-0.4-0.3-0.8-0.5-1.1c-1.1,0.8-2.2,1.1-3.6,1
				c0.1,0.4,0.1,0.8,0.2,1.2c1.3-0.2,2.5-0.4,3.8-0.6c0.8-0.1,0.8-1.3,0-1.2c-1,0.1-1.9,0.3-2.8,0.7c-0.7,0.3-0.2,1.3,0.5,1.1
				c1.6-0.3,3.1-0.9,4.5-1.9c0.7-0.4,0-1.5-0.6-1.1c-1.3,0.9-2.7,1.4-4.2,1.7c0.2,0.4,0.3,0.8,0.5,1.1c0.8-0.3,1.4-0.5,2.2-0.5
				c0-0.4,0-0.8,0-1.2c-1.4,0.2-2.8,0.4-4.2,0.6c-0.7,0.1-0.5,1.2,0.2,1.2c1.5,0.1,2.9-0.3,4.2-1.1c0.6-0.4,0.2-1.4-0.5-1.1
				c-1.8,0.5-3.6,1.1-5.4,1.6C238.1,524.4,238.4,525.7,239.2,525.4L239.2,525.4z"/>
		</g>
	</g>
	<g>
		<g>
			<path class="st18" d="M250.6,524.7c-0.6,0-1.2-0.1-1.9-0.1c-0.6,0-0.8,0.7-0.4,1.1c0.3,0.3,0.5,0.6,0.8,0.9
				c0.3-0.3,0.6-0.6,0.9-0.9c-0.2-0.2-0.5-0.5-0.7-0.7c-0.6-0.5-1.5,0.3-0.9,0.9c0.2,0.2,0.5,0.4,0.7,0.7c-0.1-0.2-0.1-0.4-0.2-0.6
				v0.1c0.2-0.2,0.4-0.3,0.6-0.5h0.1c0.1,0.1,0.2,0.2,0.3,0.4v-0.1c-0.1,0.2-0.1,0.4-0.2,0.6c0.1-0.1,0.5-0.1,0.6-0.1
				c0.2-0.1,0.4-0.2,0.6-0.4c0.4-0.3,0.7-0.8,0.8-1.3c-0.3,0.1-0.7,0.2-1,0.3c0.1,0.1,0.1,0.2,0.2,0.3c0,0.7,0.8,0.8,1.2,0.3
				c0.3-0.4,0.5-0.7,0.8-1.1c-0.4-0.1-0.8-0.2-1.2-0.3c0,0.2-0.1,0.4-0.2,0.5c0.4,0.1,0.8,0.2,1.2,0.3c0-0.1,0-0.2,0.1-0.3
				c-0.3,0-0.7-0.1-1-0.1c0.6,0.8,1.7,0.7,2-0.3c0.3-0.8-0.9-1.1-1.2-0.3c0.1,0,0.2,0,0.3,0c-0.2-0.3-0.7-0.5-1-0.1
				c-0.3,0.4-0.5,0.7-0.4,1.2c0,0.6,0.8,0.8,1.2,0.3c0.3-0.4,0.4-0.7,0.4-1.1c0.1-0.7-0.8-0.7-1.2-0.3c-0.3,0.4-0.5,0.7-0.8,1.1
				c0.4,0.1,0.8,0.2,1.2,0.3c0-0.5-0.2-0.9-0.5-1.2c-0.3-0.3-0.9-0.2-1,0.3c-0.1,0.6-0.5,0.7-1,0.9c-0.3,0.1-0.6,0.2-0.7,0.5
				c-0.3,0.6,0.2,1.1,0.8,1.1c0.3,0,0.5-0.2,0.6-0.5c0.1-0.6-0.4-1-0.9-1.4c-0.3,0.3-0.6,0.6-0.9,0.9c0.2,0.2,0.5,0.5,0.7,0.7
				c0.6,0.6,1.4-0.3,0.9-0.9c-0.3-0.3-0.5-0.6-0.8-0.9c-0.1,0.4-0.3,0.7-0.4,1.1c0.6,0,1.2,0.1,1.9,0.1
				C251.4,526,251.4,524.8,250.6,524.7L250.6,524.7z"/>
		</g>
	</g>
	<g>
		<g>
			<path class="st18" d="M239.2,512.3c0,1.6,0,3.2,0.1,4.8c0,1.3,2.2,1.8,2.5,0.3c0.3-1.6,0.5-3.2,0.8-4.8c0.3-1.6-2.2-2.3-2.4-0.7
				c-0.3,1.6-0.5,3.2-0.8,4.8c0.8,0.1,1.6,0.2,2.5,0.3c-0.1-1.6-0.1-3.2-0.1-4.8C241.7,510.7,239.2,510.7,239.2,512.3L239.2,512.3z"
				/>
		</g>
	</g>
	<g>
		<g>
			<path class="st18" d="M236.7,513c0,2.2-0.1,4.4,0,6.6c0.1,1.4,2,1.7,2.5,0.3c0.7-2.2,0.9-4.5,1.3-6.8c0.3-1.6-2.1-2.2-2.4-0.7
				c-0.4,2.3-0.6,4.6-1.3,6.8c0.8,0.1,1.6,0.2,2.5,0.3c-0.1-2.2-0.1-4.4,0-6.6C239.2,511.4,236.7,511.4,236.7,513L236.7,513z"/>
		</g>
	</g>
	<g>
		<g>
			<path class="st18" d="M235.3,513.1c0,0.8,0.1,1.5,0.1,2.3c0.8-0.2,1.6-0.4,2.3-0.6c-0.2-0.3-0.2-0.5-0.2-0.9
				C237.7,512.6,235.7,512.1,235.3,513.1c-0.3,0.6-0.6,1.2-0.8,1.7c0.8,0.2,1.6,0.4,2.3,0.6c0.1-0.5,0.1-1,0.2-1.5
				c0.1-0.7-0.2-1.3-0.9-1.5c-0.6-0.2-1.4,0.2-1.5,0.9c-0.1,0.7-0.2,1.4-0.3,2.1c-0.2,1.2,1.8,1.7,2.3,0.6c0.2-0.5,0.5-1.1,0.7-1.6
				c-0.8-0.2-1.6-0.4-2.3-0.6c-0.1,0.8,0.1,1.5,0.5,2.2c0.6,1,2.4,0.7,2.3-0.6c0-0.8-0.1-1.5-0.1-2.3c0-0.7-0.6-1.2-1.2-1.2
				C235.9,511.9,235.2,512.4,235.3,513.1L235.3,513.1z"/>
		</g>
	</g>
	<g>
		<g>
			<path class="st18" d="M235,513.3c-0.1,1.1-0.2,2.2-0.2,3.3c-0.1,1.4,2.2,1.7,2.5,0.3c0.2-1.3,0.4-2.5,0.6-3.8
				c0.1-0.7-0.2-1.3-0.9-1.5c-0.6-0.2-1.4,0.2-1.5,0.9c-0.2,1.3-0.4,2.5-0.6,3.8c0.8,0.1,1.6,0.2,2.5,0.3c0.1-1.1,0.1-2.2,0.2-3.3
				C237.6,511.7,235.1,511.8,235,513.3L235,513.3z"/>
		</g>
	</g>
	<g>
		<g>
			<path class="st18" d="M235,513.3c0.1,1.3,0.1,2.6,0.2,3.9c0.1,1.6,2.5,1.6,2.5,0c0-1.4,0-2.8,0.1-4.3c0.1-1.6-2.4-1.6-2.5,0
				c-0.1,1.4-0.1,2.8-0.1,4.3c0.8,0,1.7,0,2.5,0c-0.1-1.3-0.1-2.6-0.2-3.9C237.4,511.7,234.9,511.7,235,513.3L235,513.3z"/>
		</g>
	</g>
	<g>
		<g>
			<path class="st18" d="M240.7,512.2c-0.3,1.2-0.6,2.3-0.8,3.5c0.8,0.1,1.6,0.2,2.5,0.3c0-1,0.3-2.1,0-3s-1.2-1.2-2-1
				s-1.5,0.7-1.9,1.4c-0.4,0.6-0.1,1.4,0.4,1.7c0.6,0.4,1.3,0.1,1.7-0.4c-0.1,0.1,0.2-0.1,0.2-0.2c0.3-0.4-1-0.4-0.8-0.8
				c0.1-0.1,0,0.2,0,0.3s0,0.3,0,0.4c0,0.5-0.1,1.1-0.1,1.6c0,1.4,2.2,1.8,2.5,0.3c0.2-1.2,0.4-2.4,0.8-3.5
				C243.6,511.3,241.2,510.7,240.7,512.2L240.7,512.2z"/>
		</g>
	</g>
	<g>
		<g>
			<path class="st18" d="M242.7,512.2c-0.5,1.7-0.7,3.4-0.8,5.1c-0.1,1.6,2.3,1.6,2.5,0c0.2-1.6,0.2-3.2,0.1-4.8s-2.6-1.6-2.5,0
				c0.1,1.6,0,3.2-0.1,4.8c0.8,0,1.7,0,2.5,0c0.1-1.5,0.3-3,0.7-4.4C245.5,511.3,243.1,510.6,242.7,512.2L242.7,512.2z"/>
		</g>
	</g>
	<g>
		<g>
			<path class="st18" d="M244.2,511.4c-0.2,1.2-0.3,2.5-0.2,3.7c0.2,1.6,2.3,1.6,2.5,0c0.1-1.3,0.1-2.5-0.1-3.8
				c-0.1-0.7-0.9-1-1.5-0.9c-0.7,0.2-1,0.9-0.9,1.5c0.2,1,0.1,2.1,0,3.1c0.8,0,1.7,0,2.5,0c-0.1-1-0.1-2,0.1-3
				C247,510.5,244.5,509.9,244.2,511.4L244.2,511.4z"/>
		</g>
	</g>
	<g>
		<g>
			<path class="st18" d="M246.2,511.3c-0.2,1.3-0.3,2.5-0.2,3.8c0.8-0.1,1.6-0.2,2.5-0.3c-0.2-1-0.5-2.1-0.7-3.1
				c-0.3-1.6-2.8-0.9-2.4,0.7c0.2,1,0.5,2.1,0.7,3.1c0.3,1.4,2.6,1.1,2.5-0.3c-0.1-1.1-0.1-2.1,0.1-3.1c0.1-0.7-0.2-1.3-0.9-1.5
				C247.1,510.3,246.3,510.6,246.2,511.3L246.2,511.3z"/>
		</g>
	</g>
	<g>
		<g>
			<path class="st18" d="M248.4,512c-0.1,0.9-0.2,1.9-0.3,2.8c0.8,0,1.7,0,2.5,0c0.1-1.1,0-2.2-0.2-3.3c-0.1-0.7-0.9-1-1.5-0.9
				c-0.7,0.2-1,0.9-0.9,1.5c0.2,0.9,0.2,1.7,0.1,2.6c-0.1,0.7,0.6,1.2,1.2,1.2c0.7,0,1.2-0.6,1.2-1.2c0.1-0.9,0.2-1.9,0.3-2.8
				c0.1-0.7-0.6-1.2-1.2-1.2C248.9,510.8,248.4,511.4,248.4,512L248.4,512z"/>
		</g>
	</g>
	<g>
		<g>
			<path class="st18" d="M249.8,511.8c0,0.9,0,1.9,0.1,2.8c0.1,1.6,2.5,1.6,2.5,0c0-1.1-0.1-2.2-0.4-3.3c-0.4-1.6-2.8-0.9-2.4,0.7
				c0.2,0.9,0.3,1.7,0.3,2.6c0.8,0,1.7,0,2.5,0c-0.1-0.9-0.1-1.9-0.1-2.8C252.3,510.1,249.8,510.1,249.8,511.8L249.8,511.8z"/>
		</g>
	</g>
	<g>
		<g>
			<path class="st18" d="M251.5,511.5c0,1.1,0,2.2,0.1,3.3c0.1,1.6,2.5,1.6,2.5,0c0-1.3-0.2-2.6-0.5-3.8c-0.4-1.6-2.8-0.9-2.4,0.7
				c0.3,1,0.4,2.1,0.4,3.1c0.8,0,1.7,0,2.5,0c-0.1-1.1-0.1-2.2-0.1-3.3C254.1,509.9,251.6,509.9,251.5,511.5L251.5,511.5z"/>
		</g>
	</g>
	<g>
		<g>
			<path class="st18" d="M252.9,511.4c0,1.1,0,2.2,0.1,3.3c0.1,1.6,2.5,1.6,2.5,0c0-1.3-0.1-2.6-0.3-3.9c-0.1-0.7-0.9-1-1.5-0.9
				C253,510.1,252.7,510.8,252.9,511.4c0.1,1.1,0.1,2.1,0.1,3.2c0.8,0,1.7,0,2.5,0c-0.1-1.1-0.1-2.2-0.1-3.3
				C255.5,509.8,253,509.8,252.9,511.4L252.9,511.4z"/>
		</g>
	</g>
	<g>
		<g>
			<path class="st18" d="M255.8,511.1c0,0.9,0.1,1.9,0.2,2.8c0.1,0.7,0.5,1.2,1.2,1.2c0.6,0,1.3-0.6,1.2-1.2c-0.1-1-0.2-2-0.4-3
				c-0.1-0.7-0.9-1-1.5-0.9c-0.7,0.2-1,0.9-0.9,1.5c0.1,0.8,0.2,1.5,0.3,2.3c0.8,0,1.7,0,2.5,0c-0.1-0.9-0.2-1.9-0.2-2.8
				c0-0.7-0.5-1.2-1.2-1.2C256.4,509.8,255.8,510.4,255.8,511.1L255.8,511.1z"/>
		</g>
	</g>
	<g>
		<g>
			<path class="st18" d="M256.3,511.4c0.1,0.7,0.2,1.5,0.3,2.2c0.1,0.6,0.8,1,1.4,0.9s1.1-0.6,1.1-1.2c-0.1-0.6-0.1-1.2-0.2-1.9
				c-0.1-0.7-0.5-1.2-1.2-1.2C256.9,510.2,256.2,510.8,256.3,511.4c0.1,0.6,0.2,1.3,0.2,1.9c0.8-0.1,1.6-0.2,2.5-0.3
				c-0.1-0.5-0.1-1-0.2-1.5c-0.1-0.7-0.5-1.2-1.2-1.2C256.9,510.2,256.2,510.8,256.3,511.4L256.3,511.4z"/>
		</g>
	</g>
	<g>
		<g>
			<path class="st18" d="M258.5,511.3c0,0.5,0,0.9,0,1.4c0.8,0,1.7,0,2.5,0c0-0.4-0.1-0.9-0.1-1.3c-0.1-0.7-0.5-1.2-1.2-1.2
				C259,510.1,258.3,510.7,258.5,511.3c-0.1,0.5,0,0.9,0,1.4c0,0.7,0.5,1.2,1.2,1.2s1.3-0.6,1.2-1.2c0-0.5,0-0.9,0-1.4
				C260.9,509.7,258.4,509.7,258.5,511.3L258.5,511.3z"/>
		</g>
	</g>
	<g>
		<g>
			<path class="st18" d="M259.1,511.5c0,0.9,0.1,1.8,0.3,2.6c0.1,0.6,0.8,1,1.4,0.9s1-0.6,1.1-1.2c0.1-0.9,0.1-1.8,0-2.7
				c0-0.7-0.5-1.2-1.2-1.2c-0.6,0-1.3,0.6-1.2,1.2c0.1,0.9,0.1,1.8,0,2.7c0.8-0.1,1.6-0.2,2.5-0.3c-0.1-0.6-0.1-1.3-0.2-2
				C261.5,509.9,259,509.9,259.1,511.5L259.1,511.5z"/>
		</g>
	</g>
	<g>
		<g>
			<path class="st18" d="M261,511.5c-0.1,0.8-0.1,1.6-0.2,2.4c0.8,0,1.7,0,2.5,0c0-0.9,0-1.9-0.1-2.8c-0.1-0.7-0.5-1.2-1.2-1.2
				c-0.6,0-1.3,0.6-1.2,1.2c0.1,0.9,0.1,1.9,0.1,2.8c0,1.6,2.4,1.6,2.5,0c0-0.8,0.1-1.6,0.2-2.4c0.1-0.7-0.6-1.2-1.2-1.2
				C261.6,510.2,261.1,510.8,261,511.5L261,511.5z"/>
		</g>
	</g>
	<g>
		<g>
			<path class="st18" d="M264.5,510.3c-0.6,2.4-0.9,4.8-1,7.2c0.8,0,1.7,0,2.5,0c0-2.3-0.1-4.5-0.3-6.8c-0.1-1.6-2.6-1.6-2.5,0
				c0.2,2.3,0.3,4.5,0.3,6.8c0,1.6,2.4,1.6,2.5,0c0.1-2.2,0.4-4.4,1-6.5C267.3,509.4,264.9,508.7,264.5,510.3L264.5,510.3z"/>
		</g>
	</g>
	<g>
		<g>
			<path class="st18" d="M265.8,510.3c-0.1,0.8-0.3,1.6-0.4,2.4c0.8,0.1,1.6,0.2,2.5,0.3c0.1-0.8,0.2-1.6,0.3-2.4
				c-0.8,0-1.7,0-2.5,0c0,1.7-0.1,3.4-0.1,5.1c0,1.4,2.2,1.7,2.5,0.3c0.2-1,0.4-2.1,0.6-3.1c-0.8-0.1-1.6-0.2-2.5-0.3
				c-0.1,1.2-0.3,2.4-0.4,3.6c-0.2,1.4,2.2,1.7,2.5,0.3c0.2-1.1,0.4-2.2,0.6-3.3c-0.8,0-1.6,0-2.4,0c0.1,0.4,0.2,0.6,0,1
				c0.8,0.2,1.6,0.4,2.3,0.6c0.1-1.4,0.1-2.7,0-4.1c-0.1-1.6-2.6-1.6-2.5,0c0.1,1.4,0.1,2.7,0,4.1c-0.1,1.2,1.8,1.7,2.3,0.6
				c0.5-0.9,0.6-1.9,0.3-2.9c-0.4-1.1-2.2-1.3-2.4,0c-0.2,1.1-0.4,2.2-0.6,3.3c0.8,0.1,1.6,0.2,2.5,0.3c0.1-1.2,0.3-2.4,0.4-3.6
				c0.2-1.4-2.2-1.7-2.5-0.3c-0.2,1-0.4,2.1-0.6,3.1c0.8,0.1,1.6,0.2,2.5,0.3c0-1.7,0.1-3.4,0.1-5.1c0-1.7-2.3-1.5-2.5,0
				c-0.1,0.8-0.2,1.6-0.3,2.4c-0.2,1.4,2.2,1.7,2.5,0.3c0.1-0.8,0.3-1.6,0.4-2.4C268.5,509.4,266.1,508.7,265.8,510.3L265.8,510.3z"
				/>
		</g>
	</g>
	<g>
		<g>
			<path class="st18" d="M266.1,510.7c-0.1,1.3-0.2,2.6-0.3,3.9c0,0.7,0.6,1.2,1.2,1.2c0.7,0,1.2-0.6,1.2-1.2
				c0.1-1.3,0.3-2.6,0.4-3.8c0.1-0.7-0.6-1.2-1.2-1.2c-0.7,0-1.2,0.6-1.2,1.2c-0.1,1.3-0.3,2.6-0.4,3.8c0.8,0,1.7,0,2.5,0
				c0.1-1.3,0.2-2.6,0.3-3.9C268.8,509.1,266.3,509.1,266.1,510.7L266.1,510.7z"/>
		</g>
	</g>
	<g>
		<g>
			<path class="st18" d="M266.2,510.8c-0.1,1-0.2,2-0.3,2.9c-0.1,1.4,2.2,1.7,2.5,0.3c0.2-0.9,0.3-1.9,0.5-2.8
				c0.1-0.7-0.2-1.3-0.9-1.5c-0.6-0.2-1.4,0.2-1.5,0.9c-0.1,0.9-0.3,1.9-0.5,2.8c0.8,0.1,1.6,0.2,2.5,0.3c0.1-1,0.2-2,0.3-2.9
				c0.1-0.7-0.6-1.2-1.2-1.2C266.7,509.6,266.2,510.1,266.2,510.8L266.2,510.8z"/>
		</g>
	</g>
	<g>
		<g>
			<path class="st18" d="M242.8,514.8c-2.4,2.5-4.3,5.2-6,8.2c-0.7,1.3,0.9,2.4,2,1.5c2.5-1.9,4.3-4.1,5.8-6.8
				c0.7-1.3-0.9-2.5-2-1.5c-1.8,1.6-3.2,3.4-4.6,5.4c-0.8,1.2,0.9,2.4,2,1.5c1.9-1.7,3.8-3.3,5.7-5c-0.6-0.6-1.2-1.2-1.8-1.8
				c-2,2.1-3.8,4.4-5.4,6.8c-0.7,1,0.7,2.4,1.7,1.7c3.1-2.2,5.8-4.6,8.1-7.6c0.8-1.1-0.2-2.7-1.5-2c-2.8,1.6-5.3,3.4-7.7,5.5
				c-0.8,0.7-0.2,2.2,0.9,2.1c3.7-0.2,7.2-2.4,10.9-1.9c0-0.8,0-1.6,0-2.4c-3.3,1.2-6.7,2.1-10.2,2.8c-1.4,0.3-1.1,2.5,0.3,2.5
				c3.5,0,7-0.4,10.4-1.1c-0.2-0.8-0.4-1.6-0.7-2.4c-1.2,0-2.5,0.1-3.7,0.1c-1.6-0.3-2.2,2-0.7,2.4c1,0.3,1.9,0.5,2.9,0.8
				c-0.2-0.7-0.4-1.4-0.6-2.1c-0.4,0.2-0.8,0.4-1.2,0.7c0.2,0.8,0.4,1.6,0.7,2.4c4.2-1.1,7.7-4.7,12.1-4.6c-0.1-0.8-0.2-1.6-0.3-2.5
				c-2.6,0.6-5.1,1.6-7.6,2.7c-1.1,0.5-0.6,2.4,0.6,2.3c2.1-0.2,4.2-0.4,6.3-0.6c-0.1-0.8-0.2-1.6-0.3-2.5c-1.1,0.5-2.2,0.8-3.3,1
				c-1.4,0.3-1,2.4,0.3,2.5c0.9,0,1.8,0.1,2.6,0.1c-0.1-0.8-0.2-1.6-0.3-2.5c-0.6,0.3-1.2,0.5-1.8,0.8c-1.4,0.6-0.9,3,0.7,2.4
				c2.2-0.8,4.4-0.3,6.5-0.9c0.4-0.1,0.9-0.2,1.3-0.5c1.4-1.2,1.2-4.5,1.2-6.1c0-1.4-2.1-1.7-2.5-0.3c-0.5,1.8-0.7,3.2-0.5,5.1
				c0.1,1,1.3,1.7,2.1,0.9c1.5-1.6,1.9-3.1,1.2-5.2c-0.3-0.9-1.4-1.2-2.1-0.6c-1,0.9-1,1.1-1.8,2.2c0.8,0.3,1.5,0.6,2.3,1
				c0.2-1.2,0.4-2.4,0.6-3.7c0.2-1.2-1.1-2.1-2.1-1.2c-1.4,1.3-2.4,2.6-3.3,4.2c-0.8,1.4,1.4,2.7,2.2,1.3c0.9-1.5,1.5-3,2-4.6
				c0.4-1.3-1.2-2-2.1-1.2c-1.6,1.4-2.9,2.9-4,4.7c-0.9,1.4,1.3,2.6,2.2,1.3c1.1-1.6,1.6-3.1,1.9-5c0.1-1-0.8-2.1-1.8-1.4
				c-2.2,1.5-4.2,3.1-6,5.1c0.6,0.6,1.2,1.2,1.8,1.8c1.3-1.6,2.2-3.2,3-5c0.4-1-0.6-2.6-1.7-1.7c-2,1.5-3.9,3-5.7,4.7
				c0.7,0.5,1.3,1,2,1.5c0.9-1.6,1.8-3.1,2.6-4.7c0.6-1-0.6-2.4-1.7-1.7c-2.1,1.4-4,2.8-6,4.4c0.7,0.5,1.3,1,2,1.5
				c1.3-1.7,2.7-3.4,4.2-5c1-1-0.2-2.7-1.5-2c-2.2,1.2-4.2,2.7-6,4.4c-1.2,1.1,0.6,2.8,1.8,1.8c1.6-1.4,2.9-2.9,4.1-4.6
				c0.6-0.8-0.4-2.2-1.4-1.8c-1.7,0.7-3,1.5-4.4,2.8c-1.1,1,0.3,2.6,1.5,2c1.9-1.1,2.9-2.3,3.6-4.3c0.5-1.5-1.9-2.2-2.4-0.7
				c-0.8,0.9-1.7,1.9-2.5,2.8c0.5,0.7,1,1.3,1.5,2c1.1-0.7,2.2-1.4,3.3-2.1c-0.5-0.6-0.9-1.2-1.4-1.8c-1.2,1.6-2.3,2.8-3.7,4.1
				c0.6,0.6,1.2,1.2,1.8,1.8c1.7-1.6,3.5-2.9,5.5-4c-0.5-0.7-1-1.3-1.5-2c-1.6,1.8-3.1,3.6-4.5,5.5c-0.9,1.2,1,2.4,2,1.5
				c1.7-1.5,3.5-2.8,5.5-4.1c-0.6-0.6-1.1-1.1-1.7-1.7c-0.9,1.6-1.8,3.1-2.6,4.7c-0.7,1.2,0.9,2.5,2,1.5c1.7-1.6,3.3-2.9,5.2-4.3
				c-0.6-0.6-1.1-1.1-1.7-1.7c-0.7,1.7-1.5,3-2.6,4.5c-1,1.2,0.7,3,1.8,1.8c1.7-1.8,3.4-3.3,5.5-4.7c-0.6-0.5-1.2-0.9-1.8-1.4
				c-0.2,1.7-0.7,3-1.7,4.4c0.7,0.4,1.4,0.8,2.2,1.3c1.1-1.7,2.1-2.9,3.6-4.2c-0.7-0.4-1.4-0.8-2.1-1.2c-0.4,1.4-1,2.8-1.8,4.1
				c0.7,0.4,1.4,0.8,2.2,1.3c0.8-1.4,1.7-2.6,2.9-3.7c-0.7-0.4-1.4-0.8-2.1-1.2c-0.2,1.2-0.4,2.4-0.6,3.7c-0.2,1.4,1.5,2.2,2.3,1
				c0.5-0.6,0.9-1.1,1.4-1.7c-0.7-0.2-1.4-0.4-2.1-0.6c-0.2,0.9-0.4,1.8-0.6,2.8c0.7,0.3,1.4,0.6,2.1,0.9c-0.3-1.5-0.2-3,0.4-4.4
				c-0.8-0.1-1.6-0.2-2.5-0.3c0.1,1.4-0.1,2.7-0.6,4c-0.8-0.1-1.6-0.1-2.4,0c-1.5,0.1-2.8,0.5-4.2,1c0.2,0.8,0.4,1.6,0.7,2.4
				c0.6-0.3,1.2-0.5,1.8-0.8c1.2-0.5,1.2-2.4-0.3-2.5c-0.9,0-1.8-0.1-2.6-0.1c0.1,0.8,0.2,1.6,0.3,2.5c1.2-0.2,2.3-0.5,3.3-1
				c1.2-0.5,1.2-2.6-0.3-2.5c-2.1,0.2-4.2,0.4-6.3,0.6c0.2,0.8,0.4,1.6,0.6,2.3c2.3-1.1,4.5-1.9,7-2.5c1.4-0.3,1.1-2.4-0.3-2.5
				c-4.9-0.2-8.2,3.5-12.8,4.7c-1.6,0.4-0.9,2.7,0.7,2.4c1.4-0.2,1.4-0.2,2.3-1.3c0.6-0.7,0.4-1.8-0.6-2.1c-1-0.3-1.9-0.5-2.9-0.8
				c-0.2,0.8-0.4,1.6-0.7,2.4c1.8,0.3,3.2,0.3,5-0.1c1.6-0.4,0.9-2.7-0.7-2.4c-3.3,0.6-6.5,0.9-9.8,1c0.1,0.8,0.2,1.6,0.3,2.5
				c3.5-0.6,6.9-1.5,10.2-2.8c1-0.4,1.3-2.2,0-2.4c-4.1-0.6-7.5,1.7-11.6,1.8c0.3,0.7,0.6,1.4,0.9,2.1c2.2-2,4.6-3.6,7.2-5.1
				c-0.5-0.7-1-1.3-1.5-2c-2.2,2.8-4.7,5.1-7.6,7.2c0.6,0.6,1.1,1.1,1.7,1.7c1.5-2.3,3.1-4.4,5-6.3c1.1-1.2-0.6-2.8-1.8-1.8
				c-1.9,1.7-3.8,3.3-5.7,5c0.7,0.5,1.3,1,2,1.5c1.3-2,2.5-3.3,4.2-4.9c-0.7-0.5-1.3-1-2-1.5c-1.4,2.6-3.1,4.5-5.4,6.3
				c0.7,0.5,1.3,1,2,1.5c1.6-2.8,3.4-5.3,5.6-7.7C245.7,515.4,243.9,513.6,242.8,514.8L242.8,514.8z"/>
		</g>
	</g>
	<g>
		<g>
			<path class="st18" d="M239.8,524.2c0.1-0.1,0.1-0.2,0.2-0.3c-0.6,0.3-0.8,1.2-0.4,1.7c0.4,0.6,1.1,0.7,1.7,0.4
				c0.5-0.2,0.8-0.7,0.9-1.2c0.1-0.7-0.2-1.4-0.9-1.5C240.8,523.2,240,523.6,239.8,524.2L239.8,524.2z"/>
		</g>
	</g>
	<g>
		<g>
			<path d="M241.3,523.3c0.9-1.9,2-3.5,3.5-5c2.3-2.2-1.2-5.8-3.5-3.5c-1.8,1.7-3.2,3.7-4.3,6c-0.6,1.2-0.4,2.7,0.9,3.4
				C238.9,524.9,240.7,524.6,241.3,523.3L241.3,523.3z"/>
		</g>
	</g>
	<path d="M233.7,511.9l1.8,20.9l2.3-4.8l2.9-1.8l3.1-1l3.3,1l2.3,2.1l0.8,0.4l1.6-2.1l3.4-1.7l3-0.8l3.5,1l2.3,1.9l1.3,1.9l0.5,2.1
		l1.4-3.6l1.4-5.7l0.4-4.2l0.6-5.6l0.2-2.8C257.7,509.4,245.7,510.2,233.7,511.9z"/>
	<g>
		<g>
			<path class="st18" d="M328.8,330.4c-12.5-22.6-39.2-33.9-64.2-33.7c-8.4,0.1-16.8,1.2-25.1,2.1c-8.2,0.9-16.7,1.2-24.8,2.7
				c-14.1,2.6-26.9,9.8-36.5,20.4c-16.9,18.5-21.3,44.1-21.6,68.3c-0.4,28.8,4,57.3,2.8,86.2c-0.8,19.4-4.5,39.3-1.3,58.7
				c2.7,16.1,10.4,30.6,21.5,42.5c1.1,1.2,2.9-0.6,1.8-1.8c-9.9-10.6-17.1-23.3-20.1-37.5c-3.5-16.2-1.2-32.9,0-49.3
				c1.1-16.2,1.4-32.5,0.3-48.7c-0.8-11.5-1.8-23-2.2-34.5c-0.9-23.5-0.1-48.9,11.8-69.9c6.5-11.4,16.2-20.9,28-26.7
				c15-7.3,32.7-7.2,48.9-8.8c15.4-1.6,30.1-1.7,44.9,3.7c14.1,5.1,26.5,14.3,33.8,27.6C327.4,333.1,329.6,331.8,328.8,330.4
				L328.8,330.4z"/>
		</g>
	</g>
	<g>
		<g>
			<path class="st18" d="M197.7,589.2c15.7,9.6,35.5,9.7,53.2,8.2c8.9-0.8,17.8-2.1,26.6-3.6c9.9-1.7,20.8-2.5,29.5-7.9
				c1.4-0.8,0.1-3-1.3-2.2c-8.3,5.1-18.8,5.9-28.3,7.5c-8.8,1.5-17.7,2.8-26.6,3.6c-17.3,1.5-36.7,1.5-51.9-7.8
				C197.6,586.2,196.4,588.4,197.7,589.2L197.7,589.2z"/>
		</g>
	</g>
	<g>
		<g>
			<path class="st18" d="M219.1,303.4c1.6,0,1.6-2.5,0-2.5S217.5,303.4,219.1,303.4L219.1,303.4z"/>
		</g>
	</g>
	<g>
		<g>
			<path class="st18" d="M161.3,353.7c-13.7-1.2-22.2-15.6-13.8-27.5c3.5-4.9,9-8.3,14.9-9.4c5.7-1,13.3-0.7,17.3,3.9
				c1.1,1.2,2.8-0.6,1.8-1.8c-4.5-5.2-12.6-5.7-19.1-4.7c-7.2,1.1-14,5.5-17.8,11.7c-8.4,13.6,1.8,28.8,16.7,30.1
				C162.9,356.4,162.9,353.9,161.3,353.7L161.3,353.7z"/>
		</g>
	</g>
	<g>
		<g>
			<path class="st18" d="M315.9,316.3c9.8-5,25.7-7.7,32.5,3.3c6.7,10.9,2.7,27.4-11,29.9c-1.6,0.3-0.9,2.7,0.7,2.4
				c14.8-2.7,19.7-20.3,13.2-32.5c-7.2-13.4-24.9-11.2-36.5-5.3C313.2,314.9,314.5,317,315.9,316.3L315.9,316.3z"/>
		</g>
	</g>
	<g>
		<g>
			<path class="st18" d="M180.7,577.8c8.3-4.1,12.8,6.4,18.5,10.4c0-0.4,0.1-0.8,0.1-1.1c-4.4,0.7-7.9,3.5-11.4,6.1
				c-3.8,2.9-9.1,7.8-14.4,6.3c-8.1-2.3-6.6-10.2-1.9-14.8c3.4-3.3,7.6-5.8,11.8-7.9c0.7-0.4,0.1-1.4-0.6-1.1
				c-6.6,3.3-22.4,12.6-14.6,21.7c9.8,11.3,21.6-7.5,31.4-9.1c0.6-0.1,0.5-0.9,0.1-1.1c-6.4-4.5-10.5-14.9-19.7-10.4
				C179.3,577,179.9,578.1,180.7,577.8L180.7,577.8z"/>
		</g>
	</g>
	<g>
		<g>
			<path class="st18" d="M171.1,597.7c-1.4-4.9,2.3-8.7,6.3-10.8c0.7-0.4,0.1-1.5-0.6-1.1c-4.5,2.4-8.4,6.8-6.8,12.2
				C170.1,598.8,171.3,598.5,171.1,597.7L171.1,597.7z"/>
		</g>
	</g>
	<g>
		<g>
			<path class="st18" d="M322.5,597.4c-4.6-2.8-7.3-7.3-11.2-10.8c-2.1-1.9-2.8-4.9-0.9-7.2c2.1-2.5,6.8-4.7,10-4.7
				c6.5-0.1,11.6,5.9,13.7,11.6c1,2.7,1.9,7,0.1,9.6C331.2,599.8,326.4,599.3,322.5,597.4c-0.7-0.3-1.4,0.7-0.6,1.1
				c5.9,2.9,13.7,2,14.5-5.8c0.8-7.2-4.6-15.7-11.3-18.4c-3.6-1.5-7.5-1-10.9,0.8c-2.6,1.4-6.7,4-7.4,7.1c-0.7,2.9,2.3,4,4.2,5.8
				c3.7,3.6,6.4,7.8,10.9,10.5C322.5,598.9,323.2,597.8,322.5,597.4z"/>
		</g>
	</g>
	<g>
		<g>
			<path class="st18" d="M325.1,586.4c3.2,3.3,5.7,7.5,5.8,12.1c0,0.8,1.3,0.8,1.2,0c-0.2-5-2.8-9.5-6.2-13
				C325.4,584.9,324.5,585.8,325.1,586.4L325.1,586.4z"/>
		</g>
	</g>
	<g>
		<g>
			<path class="st18" d="M342.3,445.2c2.3,1,5.4,0,7.9,0.5c4.5,1,9,3.6,11.1,7.9c2.6,5.3,0.3,11.6-6.3,10.3
				c-4.7-0.9-8.3-4.3-11.6-7.5c-0.6-0.6-1.5,0.3-0.9,0.9c3.9,3.8,8.3,7.8,14.2,8c3.8,0.1,6.5-2.1,6.9-5.9c0.5-4.7-2.1-9.1-5.8-11.8
				c-2.4-1.7-5.5-3-8.4-3.4c-2.1-0.3-4.7,0.5-6.7-0.3C341.9,443.7,341.5,444.9,342.3,445.2L342.3,445.2z"/>
		</g>
	</g>
	<g>
		<g>
			<path class="st18" d="M353.8,457.2c3.1,1,7,3.6,5.1,7.3c-0.4,0.7,0.7,1.3,1.1,0.6c2.3-4.5-1.9-7.9-5.8-9.1
				C353.3,455.7,353,457,353.8,457.2L353.8,457.2z"/>
		</g>
	</g>
	<path class="st18" d="M338.6,329.6c0-3.3-2.7-6-6-6s-6,2.7-6,6s2.7,6,6,6C336,335.6,338.6,332.9,338.6,329.6z"/>
	<circle class="st18" cx="164" cy="334.9" r="6"/>
	<g>
		<g>
			<path class="st18" d="M160.4,447.1c-6.4-1.1-13.4,1.9-18.1,6.3c-3.3,3.2-5.2,7.8-0.4,10.5c0.7,0.4,1.3-0.7,0.6-1.1
				c-5.6-3.1,0.1-8.5,3.4-10.7c4.1-2.8,9.1-4.7,14.1-3.8C160.9,448.5,161.2,447.3,160.4,447.1L160.4,447.1z"/>
		</g>
	</g>
	<g>
		<g>
			<path class="st18" d="M146.9,459c-1.9,0.9-4.4,2.7-4.5,5.1c-0.1,2.3,2.3,3.6,4.2,3.9c5.5,0.9,11.6-5.1,14.5-9.1
				c0.5-0.6-0.6-1.3-1.1-0.6c-2.3,3.1-5.5,6-9,7.6c-2,0.9-5.8,1.8-7.1-0.7c-1.2-2.3,2-4.3,3.6-5C148.3,459.7,147.6,458.6,146.9,459
				L146.9,459z"/>
		</g>
	</g>
	<g>
		<g>
			<path class="st18" d="M325.2,328.4c17,25,14.9,57.1,14.7,85.9c-0.2,35.4,4.6,70.7,2.9,106.1c-0.5,10-1.9,20.3-5.2,29.7
				c-3,8.5-9.1,15.4-13.3,23.3c-0.8,1.4,1.4,2.7,2.2,1.3c3.8-7,9-13.1,12.2-20.4c3.2-7.1,4.7-15.2,5.7-22.9
				c2.4-18.2,1.3-37,0.4-55.3c-1-19.1-2.3-38.2-2.3-57.3c0-15.2,0.6-30.4-0.7-45.5c-1.4-16.2-5.1-32.4-14.4-46
				C326.4,325.9,324.3,327.1,325.2,328.4L325.2,328.4z"/>
		</g>
	</g>
	<g>
		<g>
			<path class="st18" d="M306.7,585c0.1,0,0.3,0,0.4,0c0.8,0,0.8-1.2,0-1.2H307c-0.2,0-0.4,0.1-0.5,0.3c-0.1,0.1-0.1,0.1,0,0.1
				c0.3,0.3,0.5,0.5,0.8,0.8c0.1-0.2,0.1-0.3,0.2-0.5c-0.3,0.1-0.7,0.2-1,0.3c0.2,0.2,0.3,0.3,0.5,0.5c0.6,0.6,1.5-0.3,0.9-0.9
				c-0.2-0.2-0.3-0.3-0.5-0.5c-0.3-0.3-0.9-0.2-1,0.3c-0.1,0.2-0.1,0.3-0.2,0.5c-0.2,0.5,0.3,0.9,0.8,0.8c0.3-0.1,0.6-0.3,0.7-0.6
				c-0.2,0.1-0.4,0.2-0.5,0.3h0.1c0.8,0,0.8-1.2,0-1.2c-0.1,0-0.3,0-0.4,0C305.9,583.7,305.9,585,306.7,585L306.7,585z"/>
		</g>
	</g>
	<path class="st19" d="M311.9,344.4c0-15.4-12.5-27.9-27.9-27.9s-27.9,12.5-27.9,27.9s12.5,27.9,27.9,27.9S311.9,359.8,311.9,344.4z
		"/>
	<path class="st18" d="M275.6,344.3c0,5,4.1,9.1,9.1,9.1s9.1-4.1,9.1-9.1s-4.1-9.1-9.1-9.1C279.7,335.1,275.6,339.2,275.6,344.3z
		 M290.5,340.6c0,1.4-1.2,2.6-2.6,2.6s-2.6-1.2-2.6-2.6s1.2-2.6,2.6-2.6C289.4,338,290.5,339.1,290.5,340.6z"/>
	<g>
		<g>
			<path class="st18" d="M234.2,525.6c0.1,2,0.3,4.1,0.4,6.1c0.1,0.8,1.2,0.8,1.2,0c0.1-0.6,0.1-1.1,0.1-1.7c-0.4,0-0.8,0-1.2,0
				c0.1,1.3,0.2,2.5,0.2,3.8c0,0.7,1.1,0.9,1.2,0.2c0.7-3.1,1.5-6.3,4.3-8.1c0.7-0.4,0.1-1.5-0.6-1.1c-3.1,2-4.2,5.4-4.9,8.9
				c0.4,0.1,0.8,0.1,1.2,0.2c0-1.3,0-2.5-0.2-3.8c-0.1-0.8-1.3-0.8-1.2,0c0,0.6,0,1.1-0.1,1.7c0.4,0,0.8,0,1.2,0
				c-0.2-2-0.3-4.1-0.4-6.1C235.5,524.8,234.2,524.8,234.2,525.6L234.2,525.6z"/>
		</g>
	</g>
	<g>
		<g>
			<path class="st18" d="M250.6,529.1c1.1-2.5,5.3-4.3,7.9-4.3c3.7,0,6.3,2.8,7,6.2c0.2,0.8,1.4,0.5,1.2-0.3
				c-0.7-3.7-3.4-6.6-7.3-7.1c-3.3-0.4-8.5,1.6-9.9,4.8C249.2,529.2,250.3,529.8,250.6,529.1L250.6,529.1z"/>
		</g>
	</g>
	<g>
		<g>
			<path class="st18" d="M261.8,362.1c12.3,6.9,31.9,7,44.2-0.1c0.7-0.4,0.1-1.5-0.6-1.1c-11.9,6.9-31,6.8-43,0.1
				C261.7,360.6,261.1,361.7,261.8,362.1L261.8,362.1z"/>
		</g>
	</g>
	<path class="st18" d="M257.1,437.8c-5.8,0.2-11.6,0.5-17.3,1.1c-2.3,0.3-4.6,0.6-6.9,0.9l0.6,73.7L270,511l0.9-73.6
		C266.3,437.5,261.7,437.6,257.1,437.8z"/>
	<g>
		<path class="st18" d="M268.8,391l-1.8,0.4l-4.9-1.1c1.2,2.2,1.4,4.9,1.6,7.4c0.1,1.5,0.2,2.9,0.1,4.4c-0.3,2.5-1.4,5-3.4,6.4
			s-5.1,1.3-6.7-0.6c-0.6-0.7-0.9-1.5-1.2-2.3c-0.2-0.8-0.3-1.6-0.5-2.4l-1,2l-1.1,2l-2,1.7l-2.7,0.2l-2.9-1.4l-1.9-2.9l-0.8-4.8
			l0.9-7.9c-0.5,0-0.9-0.1-1.4-0.2c-1.8,0.2-4.2-0.5-5.6-1c0,0,0,0-0.1,0c-0.3,0-0.6-0.1-0.9-0.2c0,0,0,0-0.1,0s-0.1,0-0.2,0l1,49.2
			l37.1-2.4v-46.6C269.9,390.9,269.4,391,268.8,391z"/>
		<g>
			<path class="st18" d="M268.7,390.4c-2.2,0.5-4.1-0.2-6.3-0.7c-0.6-0.1-0.9,0.4-0.7,0.9c1.3,3,1.7,6.7,1.7,10
				c0,1.6-0.3,4.1-1.4,5.4c-5.4,2.4-8.3,1.9-8.8-1.3c-0.1-0.6-0.3-1.2-0.3-1.8c-0.1-0.5-0.9-0.6-1.1-0.1c-0.9,1.8-1.8,4.5-3.8,5.4
				c-2.3,1-4.7-0.6-5.9-2.4c-2.7-4-1.3-9.4-0.7-13.9c0-0.4-0.3-0.6-0.6-0.6c-2.8-0.3-5.4-0.9-8.1-1.4c-0.4-0.1-0.8,0.2-0.8,0.6
				c0.3,16.4,0.7,32.8,1,49.2c0,0.3,0.3,0.6,0.6,0.6c12.4-0.8,24.7-1.6,37.1-2.4c0.3,0,0.6-0.3,0.6-0.6c0-15.5,0-31,0-46.6
				c0-0.3-0.3-0.7-0.6-0.6c-0.5,0.1-1.1,0.1-1.6,0.2c-0.8,0.1-0.8,1.3,0,1.2c1.8-0.2,0.4-1.2,1,0.2c0.3,0.8,0,2.4,0,3.3
				c0,3.4,0,6.9,0,10.3c0,8,0,16,0,24c0,2.4-0.2,4.9,0,7.2c0.1,1-0.2,0.6,0.5,0.2c-0.4,0.2-1.5,0.1-2,0.1
				c-7.5,0.5-14.9,0.9-22.4,1.4c-3.4,0.2-6.7,0.4-10.1,0.6c-0.7,0-1.5,0.2-2.3,0.1c-0.5,0,0.4,1.1,0.3,0.1
				c-0.8-5.7-0.2-11.9-0.4-17.7c-0.2-7.9-0.3-15.8-0.5-23.7c0-2.2,0-4.5-0.1-6.7c-0.1-1.1-0.3,0-0.5,0c1,0.1,1.9,0.6,2.8,0.8
				c0.9,0.2,3,0.1,3.9,0.4c1.1,0.5,0.4-0.6,0.6,1.2c0.1,1-0.3,2.3-0.4,3.3c-0.1,1.2-0.3,2.4-0.2,3.6c0.2,2.5,0.8,5.7,2.7,7.5
				c4.9,4.5,8.7-0.3,10.8-4.5c-0.4,0-0.8-0.1-1.1-0.1c0.7,4.7,4.4,8.9,9.3,5.6c5.6-3.8,4.1-13.7,1.8-18.9c-0.2,0.3-0.5,0.6-0.7,0.9
				c2.6,0.6,4.5,1.3,7,0.7C269.8,391.5,269.4,390.3,268.7,390.4z"/>
		</g>
	</g>
	<g>
		<g>
			<path class="st18" d="M240.7,299.5c-3.1-6.8-5.9-13.8-8.4-20.8c-0.3-0.8-1.5-0.4-1.2,0.3c2.6,7.1,5.4,14.2,8.6,21.1
				C240,300.8,241,300.2,240.7,299.5L240.7,299.5z"/>
		</g>
	</g>
	<g>
		<g>
			<path class="st18" d="M243.6,299.3c-1.5-19.6-1.3-39.3,0.6-58.9c0.1-0.8-1.2-0.8-1.2,0c-1.9,19.6-2.2,39.3-0.6,58.9
				C242.4,300.1,243.6,300.1,243.6,299.3L243.6,299.3z"/>
		</g>
	</g>
	<g>
		<g>
			<path class="st18" d="M250.4,296.8c0.6,0.4,0.8,0.4,0.7,0.1c0-0.2,0-0.3-0.1-0.5c0-0.3,0-0.6,0-0.9c0-1,0-2,0.1-3
				c0.1-1.7,0.2-3.4,0.3-5.1c0-0.8-1.2-0.8-1.2,0c-0.1,2.5-0.3,5.1-0.4,7.6c0,0.6-0.2,3.8,1.3,2.9
				C251.7,297.5,251.1,296.5,250.4,296.8L250.4,296.8z"/>
		</g>
	</g>
	<g>
		<g>
			<path class="st18" d="M203.1,316.1c5.3-5.1,13.3-5.8,19.5-1.7c0.7,0.4,1.3-0.6,0.6-1.1c-6.6-4.4-15.3-3.5-21,1.9
				C201.7,315.8,202.6,316.6,203.1,316.1L203.1,316.1z"/>
		</g>
	</g>
	<g>
		<g>
			<path class="st18" d="M271.2,313.8c5.3-5.1,13.3-5.8,19.5-1.7c0.7,0.4,1.3-0.6,0.6-1.1c-6.6-4.4-15.3-3.5-21,1.9
				C269.8,313.5,270.6,314.4,271.2,313.8L271.2,313.8z"/>
		</g>
	</g>
	<ellipse class="st20" cx="183.1" cy="588" rx="27.2" ry="19.8"/>
	<path class="st18" d="M247.4,224.5c-66,0-119.8,50-119.8,111.4c0,28.1,11.3,53.9,29.8,73.5c-0.2-0.7-0.4-1.4-0.6-2.1
		c-17.6-19.3-28.3-44.2-28.3-71.4c0-60.9,53.3-110.4,118.8-110.4S366.2,275.1,366.2,336c0,25.6-9.4,49.1-25.1,67.9
		c0.2,0.3,0.3,0.7,0.4,1c16.1-19,25.7-42.9,25.7-68.9C367.2,274.5,313.5,224.5,247.4,224.5z"/>
	<ellipse class="st20" cx="250.8" cy="397.9" rx="126.6" ry="171.8"/>
	<circle class="st20" cx="390.7" cy="315.3" r="13.2"/>
	<circle class="st20" cx="390.7" cy="315.3" r="6.7"/>
	<ellipse class="st20" cx="321.5" cy="588.1" rx="27.2" ry="19.6"/>
	<g>
		<g>
			<path class="st18" d="M127.2,325.3c-9.8-1-8.2,13.2-8.3,19.1c-0.1,5.1-0.7,10.7-0.1,15.8c0.4,3.3,2.2,5.7,5.6,5.8
				c0.8,0,0.8-1.2,0-1.2c-1.4-1.2-2.8-2.3-4.2-3.5c-0.2-1.1-0.3-2.2-0.3-3.3c0-1.1,0-2.3,0-3.4c0-3.1,0.1-6.1,0.1-9.2
				c0.1-5.4-1.6-19.7,7.1-18.8C128,326.6,128,325.3,127.2,325.3L127.2,325.3z"/>
		</g>
	</g>
	<g>
		<g>
			<path class="st18" d="M118.3,337.7c-0.8-0.9-2-1-3.1-0.3c-1.8,1.3-1.2,4.5-1.1,6.3c0.1,1.3-0.5,12.7,3.3,10.6
				c0.7-0.4,0.1-1.5-0.6-1.1c-0.7,0.4-1.3-7.1-1.3-7.7c-0.1-1-0.1-2-0.2-3c0-0.4,0-0.8-0.1-1.2c-0.2-1.3,0.5-2.2,2.1-2.7
				C118,339.2,118.9,338.3,118.3,337.7L118.3,337.7z"/>
		</g>
	</g>
	<g>
		<g>
			<path class="st18" d="M363.4,304.7c2.1,0.4,4.2,0.8,6.3,1.3c0.4,0.8,0.7,1.7,1.1,2.5c0.3,0.9,0.4,1.9,0.6,2.9
				c0.5,2.7,1,5.4,1.5,8.1c0.9,5,5.7,19.6-2.6,20.1c-0.8,0-0.8,1.3,0,1.2c10.6-0.6,4.5-17.7,3.4-23.5c-0.7-4.1-3.3-20.6-11.2-13.5
				C362,304.3,362.8,305.2,363.4,304.7L363.4,304.7z"/>
		</g>
	</g>
	<g>
		<g>
			<path class="st18" d="M373.7,311.4c2.1-2.2,2.9,2.9,3.1,3.6c0.2,1.1,0.4,2.2,0.7,3.3c0.2,1.1,0.5,2.2,0.7,3.3
				c0.1,0.5,0.2,1.1,0.3,1.6c0.3,1.6-0.7,2.6-2.9,2.9c-0.6-0.5-1.5,0.4-0.9,0.9c1.2,1,2.8,1,4-0.2c1.8-1.8,0.8-5,0.4-7.1
				c-0.3-1.7-1.7-13.4-6.1-9C372.3,311.1,373.2,312,373.7,311.4L373.7,311.4z"/>
		</g>
	</g>
	<circle class="st20" cx="101.5" cy="347.1" r="13.2"/>
	<circle class="st20" cx="101.5" cy="347.1" r="6.7"/>
	<ellipse class="st20" cx="321.5" cy="590.9" rx="27.2" ry="22.4"/>
	<ellipse class="st20" cx="183.1" cy="590.9" rx="27.2" ry="22.5"/>
	<ellipse class="st20" cx="249.6" cy="401.4" rx="126.6" ry="175.3"/>
	<path class="st21" d="M77.6,263.1c25.3-23.4,44.3-54.3,75-71.4c7-3.9,14.5-7,22.4-8.8c1.7-0.4,4.2-1.2,5.9-0.9
		c3.4,0.6,1.8,4.8,1.1,6.9c-1.4,3.9-3.1,7.7-5,11.4c-7.8,15.6-19,29.1-30.8,41.9c-14.5,15.6-29.7,30.6-44.9,45.5
		c0.2,0.2,0.5,0.5,0.7,0.7c0.3-0.3,0.5-0.6,0.8-0.8c0.5-0.5-0.3-1.1-0.8-0.6c-0.3,0.3-0.5,0.6-0.8,0.8c-0.4,0.4,0.3,1.1,0.7,0.7
		c14.3-14,28.5-28,42.2-42.6c12.3-13,24.1-26.8,32.5-42.7c2.1-4,4-8.1,5.6-12.2c0.9-2.3,2.9-6.3,1-8.7c-0.8-1-2.1-1.3-3.3-1.2
		c-2.2,0.2-4.5,0.7-6.6,1.3c-3.8,0.9-7.4,2.1-11,3.6c-15.5,6.3-28.8,17-40.6,28.7C106.3,230,93,247.5,77,262.3
		C76.6,262.8,77.2,263.6,77.6,263.1L77.6,263.1z"/>
	<path class="st21" d="M60.3,248.5c10.2,8.6,19.6,18.2,28.9,27.8c9.4,9.6,18.6,19.4,27.7,29.3c0.4,0.5,1.2-0.1,0.8-0.6
		c-9.3-10.1-18.7-20.1-28.3-29.9c-9.2-9.4-18.5-18.9-28.5-27.4C60.4,247.3,59.8,248.1,60.3,248.5L60.3,248.5z"/>
	<path class="st21" d="M60.9,248.2c0.1-2.1,3.5-2.6,5-3.1c1.8-0.6,3.6-1.2,5.5-1.7c3.4-1.1,6.8-2.1,10.3-3c7.3-2,14.7-3.8,22.1-5.3
		c0.6-0.1,0.5-1.1-0.1-1c-8.3,1.7-16.5,3.7-24.6,6c-4,1.1-8.1,2.4-12.1,3.7c-2.2,0.7-6.9,1.4-7,4.4
		C59.9,248.7,60.9,248.9,60.9,248.2L60.9,248.2z"/>
	<path class="st21" d="M130.9,258.2c-2.1,8-4.1,15.9-6.2,23.9c-2,7.7-3.5,15.8-7,23c0.2-0.1,0.4-0.2,0.7-0.3
		c-0.4-0.1-0.8-0.3-1.2-0.4c-0.6-0.2-1,0.7-0.4,0.9c0.4,0.1,0.8,0.3,1.2,0.4c0.3,0.1,0.5,0,0.7-0.3c3.4-7,5-14.9,6.9-22.5
		c2.1-8.2,4.2-16.4,6.4-24.6C132.1,257.7,131.1,257.6,130.9,258.2L130.9,258.2z"/>
	<path class="st21" d="M88,274.3c5.1-5,10.2-10.1,15.3-15.1c2.5-2.4,4.9-4.9,7.4-7.3c1.3-1.3,2.7-2.6,4-3.9c0.6-0.6,1.1-1.1,1.7-1.7
		c0.8-0.8,3.3-1.5,3.2,0.4c-0.1,1.4-1.5,2.6-2.3,3.6c-1.3,1.4-2.7,2.8-4.1,4.1c-2.4,2.3-4.9,4.6-7.4,6.9
		c-5.2,4.8-10.3,9.6-15.5,14.4c-0.5,0.4,0.1,1.2,0.6,0.8c4.9-4.5,9.8-9.1,14.7-13.6c4.5-4.2,9.5-8.3,13.4-13.1
		c0.9-1.1,2.1-2.8,1.6-4.4c-0.4-1.4-1.9-1.7-3.1-1.2c-1,0.4-1.8,1.3-2.5,2.1c-1.2,1.2-2.5,2.4-3.7,3.6c-2.5,2.4-4.9,4.9-7.4,7.3
		c-5.5,5.4-11,10.8-16.5,16.3C87,274,87.6,274.8,88,274.3L88,274.3z"/>
	<path class="st21" d="M119,244.9c-9.8,10.1-19.8,20.1-29.9,30c-0.2,0.2,0.1,0.6,0.3,0.4c10.1-9.9,20.1-19.9,30-30.1
		C119.6,245,119.2,244.7,119,244.9L119,244.9z"/>
	<path class="st21" d="M150.8,192.6c6.9,6.2,13.7,12.5,20.3,19c0.2,0.2,0.5-0.2,0.3-0.4c-6.6-6.5-13.4-12.8-20.3-19
		C150.9,192,150.6,192.4,150.8,192.6L150.8,192.6z"/>
	<path class="st21" d="M132.7,205.2c8.4,8,16.9,15.9,25.3,23.9c0.2,0.2,0.5-0.2,0.3-0.4c-8.4-8-16.9-15.9-25.3-23.9
		C132.7,204.6,132.4,205,132.7,205.2L132.7,205.2z"/>
	<path class="st21" d="M117.6,219.5c8.7,8.5,17.7,16.6,27.1,24.3c0.2,0.2,0.6-0.2,0.3-0.4c-9.4-7.7-18.4-15.8-27.1-24.3
		C117.7,218.9,117.4,219.3,117.6,219.5L117.6,219.5z"/>
	<path class="st21" d="M77.8,241.7c0.2-0.1,0.4-0.2,0.6-0.3c-0.1-0.1-0.1-0.3-0.2-0.4c-1,0.8-12.9,10.8-12.3,11.3
		c0.2,0.2,0.5-0.2,0.3-0.4c0,0,0,0-0.1-0.1s-0.2-0.1-0.3,0l-0.1,0.1c-0.1,0.1-0.1,0.1-0.1,0.2v0.1c0,0.1,0.1,0.2,0.3,0.2
		c0.7,0,1.2-0.9,1.6-1.3c1.2-1.3,2.4-2.5,3.7-3.7c2.3-2.2,4.8-4.2,7.3-6.1c0.2-0.2,0-0.5-0.2-0.4c-0.6,0-0.6,0-0.9,0.5
		C77.2,241.6,77.6,241.9,77.8,241.7L77.8,241.7z"/>
	<path class="st21" d="M91.8,237.2c-6.9,6.4-13.8,12.9-20.7,19.3c-0.2,0.2,0.1,0.6,0.3,0.4c6.9-6.4,13.8-12.9,20.7-19.3
		C92.3,237.4,92,237,91.8,237.2L91.8,237.2z"/>
	<path class="st21" d="M126.9,273.8c-7,6.4-13.9,12.9-20.7,19.5c0.1,0.1,0.2,0.2,0.4,0.4c0.3-0.3,0.6-0.6,0.9-0.9
		c0.2-0.2-0.2-0.5-0.4-0.3c-0.3,0.3-0.6,0.6-0.9,0.9c-0.2,0.2,0.1,0.5,0.4,0.4c6.8-6.6,13.7-13.1,20.7-19.5
		C127.4,274,127.1,273.6,126.9,273.8L126.9,273.8z"/>
	<path class="st21" d="M123.2,288.2c-2.3,2.4-4.7,4.7-7.2,6.9c-1.1,1-2.2,2-3.4,2.9c-0.3,0.3-1,0.5-0.9,1c0,0.1,0.1,0.2,0.3,0.2h0.1
		c0.3,0,0.3-0.5-0.1-0.5c1.2-0.1,2.3-1.5,3.2-2.3c1-0.9,2-1.8,3-2.8c1.8-1.7,3.6-3.5,5.3-5.3C123.8,288.3,123.4,288,123.2,288.2
		L123.2,288.2z"/>
	<path class="st21" d="M80,260.3c3.3,3.6,6.8,7,10.6,10.1c0.3,0.2,0.6-0.2,0.3-0.4c-3.8-3.1-7.3-6.4-10.5-10
		C80.2,259.8,79.8,260.1,80,260.3L80,260.3z"/>
	<path class="st21" d="M93.7,273.9c3.6,3.6,7.2,7.2,10.7,10.8c0.2,0.2,0.6-0.1,0.4-0.3c-3.6-3.6-7.2-7.2-10.7-10.8
		C93.9,273.4,93.5,273.7,93.7,273.9L93.7,273.9z"/>
	<polygon class="st22" points="67.7,247.7 66.6,248.3 66.5,249.6 65.5,248.7 64.3,249 64.8,247.9 64.2,246.8 65.4,246.9 66.2,246 
		66.5,247.2 	"/>
	<polygon class="st22" points="119,299.1 117.9,299.7 117.8,301 116.8,300.2 115.6,300.4 116.1,299.3 115.4,298.2 116.7,298.3 
		117.5,297.4 117.8,298.6 	"/>
	<circle class="st23" cx="154" cy="208.9" r="4.8"/>
	<circle class="st23" cx="139" cy="224" r="2.9"/>
	<circle class="st23" cx="126" cy="239.4" r="1.9"/>
	
		<ellipse transform="matrix(0.7026 -0.7116 0.7116 0.7026 -114.4115 155.5812)" class="st24" cx="128.9" cy="214.7" rx="2.9" ry="1.2"/>
	
		<ellipse transform="matrix(0.7864 -0.6178 0.6178 0.7864 -93.2315 132.3824)" class="st24" cx="144.8" cy="201" rx="5.6" ry="1.2"/>
	
		<ellipse transform="matrix(0.7026 -0.7116 0.7116 0.7026 -128.6844 149.696)" class="st24" cx="114.7" cy="228.8" rx="2" ry="1.2"/>
	<circle class="st23" cx="154" cy="208.9" r="6.4"/>
	<circle class="st23" cx="138.9" cy="224" r="4.8"/>
	<circle class="st23" cx="125.9" cy="239.3" r="3.1"/>
	<path class="st18" d="M150.3,208.8c0,2,1.7,3.7,3.7,3.7s3.7-1.7,3.7-3.7s-1.7-3.7-3.7-3.7C151.9,205.1,150.3,206.7,150.3,208.8z
		 M156.3,207.2c0,0.6-0.5,1-1,1.1c-0.6,0-1-0.5-1.1-1c0-0.6,0.5-1,1-1.1C155.8,206.2,156.3,206.7,156.3,207.2z"/>
	<path class="st18" d="M137.2,224c0,1,0.8,1.8,1.9,1.8c1,0,1.8-0.8,1.8-1.9c0-1-0.8-1.8-1.9-1.8C138,222.2,137.2,223,137.2,224z
		 M140.2,223.3c0,0.3-0.2,0.5-0.5,0.5s-0.5-0.2-0.5-0.5s0.2-0.5,0.5-0.5S140.2,223,140.2,223.3z"/>
	<path class="st18" d="M124.7,239.4c0,0.6,0.5,1.1,1.1,1.1s1.1-0.5,1.1-1.1c0-0.6-0.5-1.1-1.1-1.1S124.7,238.8,124.7,239.4z
		 M126.5,238.9c0,0.2-0.1,0.3-0.3,0.3s-0.3-0.1-0.3-0.3c0-0.2,0.1-0.3,0.3-0.3S126.5,238.8,126.5,238.9z"/>
	<path class="st18" d="M176.9,182.8c0.1,0,0.2,0.1,0.2,0.1c0-0.2,0-0.3,0.1-0.5c-0.5,0-0.9-0.3-1.5-0.3c-0.8,0-1.7,0.2-2.5,0.4
		c-1.3,0.4-2.6,1-3.3,2.1c-0.7,1-0.8,2.5-0.2,3.6c0.9,1.6,3.1,1.5,4.4,2.5c1.9,1.3,1.4,5.6,4.7,4.1c3.4-1.6,3.8-5.6,3-8.8
		c-0.1-0.3-0.6-0.2-0.5,0.1c0.8,3,0.6,6.8-2.7,8.3c-2.6,1.2-2.5-2.7-4-3.9c-0.8-0.6-1.9-0.8-2.8-1.3c-2-0.9-2.7-3.2-1-4.8
		c1-1,2.6-1.4,4-1.6c0.9-0.1,1.6,0.2,2.5,0.2c0.3,0,0.2-0.4,0.1-0.5c-0.1,0-0.2-0.1-0.2-0.1C176.8,182.2,176.6,182.6,176.9,182.8
		L176.9,182.8z"/>
	<path class="st18" d="M177,194.7c-0.7,1.7-1.9,3.2-3.4,4.3c-1.2,0.8-2.7,0.9-3.8-0.2c-1-1-0.5-2.1-0.1-3.2c0.1-0.3-0.4-0.5-0.5-0.2
		c-0.3,1-0.9,2-0.4,3s1.7,1.7,2.8,1.7c2.7,0.1,4.9-3.1,5.8-5.2C177.6,194.6,177.2,194.4,177,194.7L177,194.7z"/>
	
		<ellipse transform="matrix(0.7026 -0.7116 0.7116 0.7026 -77.1062 183.0715)" class="st18" cx="180.5" cy="183.8" rx="4.4" ry="5.8"/>
	<path class="st18" d="M174.2,190.6c-0.9,1.3-2.2,2.5-3.3,3.5c-0.6,0.5-1.2,1.1-2,1.4c-1.3,0.6-2.9,0.3-3.5-1.2
		c-1-2.6,2.6-5.3,4.5-6.3c0.3-0.2,0.1-0.6-0.2-0.5c-2.2,1.2-6.2,4.4-4.5,7.4c2.4,4.3,8-1.9,9.5-4
		C174.8,190.6,174.4,190.3,174.2,190.6L174.2,190.6z"/>
	<path class="st18" d="M144.6,244.8c0.3,0.7,1.1,1.2,1.6,1.7c1.6,1.6,2.6,4.2,2.1,6.5c-0.2,1.3-1.1,2.9-2.4,3.5
		c-1.9,0.8-3.2-1-3.8-2.4c-0.7-1.6-0.7-3.4-0.8-5.2c0-0.3-0.5-0.3-0.5,0.1c0.1,2.5,0.2,5.6,2.3,7.4c1.2,1.1,2.7,1,3.9,0
		c1.7-1.4,2.2-3.8,1.8-5.9c-0.2-1.2-0.7-2.3-1.4-3.2c-0.6-0.9-1.9-1.6-2.3-2.6C144.9,244.4,144.5,244.5,144.6,244.8L144.6,244.8z"/>
	<path class="st18" d="M144.5,252.5c0.7,1.4,1.1,3.5-0.7,4.1c-0.3,0.1-0.1,0.6,0.2,0.5c2.1-0.7,1.9-3.1,1-4.8
		C144.8,252,144.3,252.2,144.5,252.5L144.5,252.5z"/>
	<path class="st18" d="M117.5,220.1c-1.7-2.4-5-3.7-8-3.7c-2.1,0-4,0.9-3.4,3.3c0.1,0.3,0.5,0.1,0.5-0.2c-0.3-1.1,0.4-2.1,1.3-2.4
		c0.3-0.1,0.7-0.2,1-0.2c0.9-0.1,1.8,0,2.7,0.2c2.2,0.5,4.2,1.4,5.5,3.3C117.3,220.7,117.7,220.4,117.5,220.1L117.5,220.1z"/>
	<path class="st18" d="M109.4,219.7c-0.9-0.3-2.4-0.6-3.2,0.3c-0.7,0.8-0.2,2,0.4,2.7c1.6,1.8,5.2,1.8,7.5,1.5
		c0.3-0.1,0.3-0.5-0.1-0.5c-1.5,0.2-3.1,0.2-4.6-0.2c-0.8-0.2-1.7-0.4-2.3-1c-0.3-0.3-0.5-0.6-0.6-1c0.2-0.5,0.3-1,0.5-1.5
		c0.4-0.4,1.7,0,2.2,0.1C109.5,220.2,109.7,219.8,109.4,219.7L109.4,219.7z"/>
	<path class="st18" d="M73.1,267.1c-15.6,14.9-30.5,30.4-44.9,46.5c-0.2,0.2,0.2,0.5,0.4,0.3c14.3-16,29.3-31.5,44.8-46.4
		C73.6,267.3,73.3,266.9,73.1,267.1z"/>
	<path class="st18" d="M79.4,282.5c-4.2,4.5-8.6,8.8-13.1,13c-0.2,0.2,0.1,0.6,0.3,0.4c4.5-4.2,8.9-8.6,13.2-13.1
		C80.1,282.6,79.7,282.3,79.4,282.5L79.4,282.5z"/>
	<path class="st18" d="M84.5,289.4c-1.9,2-3.7,4-5.6,6c-0.2,0.2,0.2,0.5,0.4,0.3c1.9-2,3.7-4,5.6-6
		C85.1,289.5,84.7,289.1,84.5,289.4L84.5,289.4z"/>
	<path class="st18" d="M88.4,295.5c-0.8,0.9-1.5,1.8-2.3,2.8c-0.2,0.2,0.2,0.6,0.4,0.3c0.8-0.9,1.5-1.8,2.3-2.8
		C89,295.5,88.6,295.2,88.4,295.5L88.4,295.5z"/>
	<path class="st18" d="M76.7,274c-7.4,7.3-14.8,14.7-22.1,22c-0.2,0.2,0.1,0.6,0.3,0.4c7.4-7.3,14.8-14.7,22.1-22
		C77.2,274.2,76.9,273.8,76.7,274z"/>
	<g>
		<g>
			<path class="st18" d="M119.1,364c-5.1,31.7-19.7,61.5-42,84.6c-11.3,11.7-24.7,21.7-40,27.2C28.3,479,18,481,9.3,476.6
				c-6.7-3.4-11-10.4-12.6-17.5c-3.6-16.2,6.7-30.9,19.6-39.7c7.1-4.9,19.1-11.7,26.6-4c5.4,5.5,1.5,13.5-5.9,13.8
				c-5,0.2-9.3-3.5-11.9-7.5C15.4,407,22,387,29.2,372.8c3.6-7.2,8.2-14.1,13.9-19.8c5.4-5.4,11.9-8.7,18.3-12.8
				c5.2-3.4,9.1-7.5,10.3-13.7c1.4-7.5,0.8-19.1,11.5-18.7c5.6,0.2,10.6,3.7,16.2,3.7c2,0,3.9-0.4,5.6-1.5c2.8-1.7,4.8-6.7,7.9-7.4
				c0.8-0.2,0.5-1.4-0.3-1.2c-3.1,0.7-4,3.7-6,5.8c-3.4,3.4-7.6,3.3-11.9,2.2c-5.2-1.4-11-4.4-16.4-2c-5.9,2.6-6.4,9.1-7.1,14.8
				c-0.7,5.6-2,10.2-6.4,14.1c-3.6,3.1-7.9,5.2-11.9,7.6c-15,9.2-24.8,25.4-30.3,41.8c-4.4,13.3-6.6,36.4,9.2,43.6
				c5,2.3,11.9,1.1,14.5-4.2c2.8-5.7-2-11.9-7.4-13.7c-8-2.6-16.8,2.6-23.1,6.9C9.1,422.9,3,428.9-0.9,436.1
				c-6.7,12.4-5.7,29.6,5.8,39c13.9,11.4,34.9,2.5,48.3-5.5c36.8-21.9,60.7-63.8,67.3-105.3C120.4,363.6,119.2,363.2,119.1,364
				L119.1,364z"/>
		</g>
	</g>
	<g>
		<g>
			<path class="st18" d="M47.1,340.6c-11.2,8.1-19.5,19.1-24.3,32.1c-0.3,0.8,0.9,1.1,1.2,0.3c4.7-12.6,12.8-23.4,23.7-31.3
				C48.4,341.2,47.7,340.1,47.1,340.6L47.1,340.6z"/>
		</g>
	</g>
	<g>
		<g>
			<path class="st18" d="M23.5,491.4c16.8-2.7,32.2-9.8,45.3-20.6c13-10.8,23.4-24.3,33.5-37.7c0.5-0.6-0.6-1.3-1.1-0.6
				c-9.7,12.9-19.7,25.9-32,36.4c-13.2,11.3-28.9,18.6-46.1,21.4C22.4,490.4,22.7,491.6,23.5,491.4L23.5,491.4z"/>
		</g>
	</g>
	<g>
		<g>
			<path class="st18" d="M56.4,493.4c8.3-5.2,15.9-11.2,22.9-18c0.6-0.6-0.3-1.4-0.9-0.9c-6.9,6.8-14.5,12.7-22.7,17.8
				C55.1,492.8,55.8,493.9,56.4,493.4L56.4,493.4z"/>
		</g>
	</g>
	<g>
		<g>
			<path class="st18" d="M263.5,443.4c-0.2-9.1,0.2-18.2,1.4-27.2c1-8.1,1.8-18.2,8.2-24c1.2-1.1-0.6-2.9-1.8-1.8
				c-6,5.5-7.2,13.9-8.3,21.6c-1.6,10.4-2.2,20.9-1.9,31.4C261,445,263.5,445,263.5,443.4L263.5,443.4z"/>
		</g>
	</g>
	<g>
		<g>
			<path class="st18" d="M238.8,423.7c-2.2-1.9-1.1-8.3-1.1-10.9c-0.1-2.7-0.2-5.3-0.6-8c-0.7-5.3-2.4-10.2-5.5-14.5
				c-0.9-1.3-3.1,0-2.2,1.3c4.4,6,5.5,13.1,5.7,20.4c0.1,3.9-1.5,10.6,1.9,13.5C238.2,426.5,240,424.7,238.8,423.7L238.8,423.7z"/>
		</g>
	</g>
	<g>
		<g>
			<path class="st18" d="M175.2,611.8c-1.5-1.5-2.3-3.4-2.5-5.5c-0.1-0.8-1.3-0.8-1.2,0c0.2,2.4,1.2,4.6,2.9,6.4
				C174.8,613.3,175.7,612.4,175.2,611.8L175.2,611.8z"/>
		</g>
	</g>
	<g>
		<g>
			<path class="st18" d="M193.1,612.1c1.2-1.6,1.5-3.7,1-5.6c-0.2-0.8-1.4-0.4-1.2,0.3c0.5,1.6,0.2,3.2-0.8,4.6
				C191.6,612.1,192.6,612.7,193.1,612.1L193.1,612.1z"/>
		</g>
	</g>
	<g>
		<g>
			<path class="st18" d="M318.3,613.4c0.4-0.8,0-1.4-0.5-2c-0.9-1.1-1.2-2.3-0.8-3.7c0.2-0.8-1-1.1-1.2-0.3c-0.3,1-0.3,2,0,2.9
				c0.1,0.4,0.3,0.8,0.5,1.2c0.1,0.2,1,1.1,0.9,1.2C316.8,613.5,317.9,614.1,318.3,613.4L318.3,613.4z"/>
		</g>
	</g>
	<g>
		<g>
			<path class="st18" d="M337.3,609.8c1-1.8,1.5-3.7,1.5-5.7c0-0.8-1.2-0.8-1.2,0c0,1.8-0.5,3.5-1.3,5.1
				C335.8,609.9,336.9,610.5,337.3,609.8L337.3,609.8z"/>
		</g>
	</g>
	<g>
		<g>
			<path class="st18" d="M238.8,575c-1.7-1.6-2.5-3.8-2.3-6.1c0.1-0.8-1.2-0.8-1.2,0c-0.2,2.6,0.8,5.2,2.7,7
				C238.5,576.4,239.4,575.5,238.8,575L238.8,575z"/>
		</g>
	</g>
	<g>
		<g>
			<path class="st18" d="M277.9,572c1-1.7,1.6-3.7,1.5-5.7c0-0.8-1.3-0.8-1.2,0c0.1,1.8-0.4,3.5-1.3,5.1
				C276.4,572.1,277.5,572.7,277.9,572L277.9,572z"/>
		</g>
	</g>
	<g>
		<g>
			<path class="st18" d="M190.8,555.9c0,0-0.1,0-0.1,0.1c-0.3,0.2-0.4,0.5-0.2,0.9c0,0.1,0.1,0.1,0.1,0.2c0.1,0.2,0.3,0.3,0.5,0.3
				c0.1,0,0.1,0,0.2,0c0.3,0,0.5-0.2,0.6-0.5c0.3-1-0.5-1.9-0.7-2.9c-0.4-1.6-0.3-3.1,0.2-4.6c0.2-0.8-1-1.1-1.2-0.3
				c-0.4,1.3-0.6,2.6-0.5,3.9c0.1,0.6,0.1,1.1,0.3,1.6c0.1,0.4,0.8,1.6,0.7,2c0.2-0.2,0.4-0.3,0.6-0.5c-0.1,0-0.1,0-0.2,0
				c0.2,0.1,0.4,0.2,0.5,0.3c0-0.1-0.1-0.1-0.1-0.2c-0.1,0.3-0.1,0.6-0.2,0.9c0,0,0.1,0,0.1-0.1
				C192.1,556.6,191.5,555.5,190.8,555.9L190.8,555.9z"/>
		</g>
	</g>
	<g>
		<g>
			<path class="st18" d="M314.5,552.2c0.5-1.5,0.4-3.1-0.1-4.6c-0.3-0.7-1.5-0.4-1.2,0.3c0.5,1.3,0.5,2.6,0.1,3.9
				C313,552.6,314.2,553,314.5,552.2L314.5,552.2z"/>
		</g>
	</g>
	<g>
		<g>
			<path class="st18" d="M253.8,577c0.3,5.9,0.4,11.8,2,17.6c0.2,0.8,1.4,0.4,1.2-0.3c-1.5-5.6-1.6-11.4-1.9-17.2
				C255,576.2,253.7,576.2,253.8,577L253.8,577z"/>
		</g>
	</g>
	<g>
		<g>
			<path class="st18" d="M208,579.5c-1.5-4.4-2.4-8.8-2.6-13.5c0-0.8-1.3-0.8-1.2,0c0.2,4.7,1,9.3,2.6,13.8
				C207.1,580.6,208.3,580.2,208,579.5L208,579.5z"/>
		</g>
	</g>
	<g>
		<g>
			<path class="st18" d="M299.5,578.3c2.8-5.4,4.2-11.3,4-17.4c0-0.8-1.3-0.8-1.2,0c0.1,5.9-1.2,11.5-3.9,16.8
				C298,578.3,299.1,579,299.5,578.3L299.5,578.3z"/>
		</g>
	</g>
	<g>
		<g>
			<path class="st18" d="M121.8,365.1c-5.1,31.7-19.7,61.5-42,84.6c-11.3,11.7-24.7,21.7-40,27.2c-8.8,3.2-19.1,5.2-27.8,0.8
				c-6.7-3.4-11-10.4-12.6-17.5C-4.2,444,6.1,429.3,19,420.5c7.1-4.9,19.1-11.7,26.6-4c5.4,5.5,1.5,13.5-5.9,13.8
				c-5,0.2-9.3-3.5-11.9-7.5c-9.7-14.7-3.1-34.7,4.1-48.9c3.6-7.2,8.2-14.1,13.9-19.8c5.4-5.4,11.9-8.7,18.3-12.8
				c5.2-3.4,9.1-7.5,10.3-13.7c1.4-7.5,0.8-19.1,11.5-18.7c5.6,0.2,10.6,3.7,16.2,3.7c2,0,3.9-0.4,5.6-1.5c2.8-1.7,4.8-6.7,7.9-7.4
				c0.8-0.2,0.5-1.4-0.3-1.2c-3.1,0.7-4,3.7-6,5.8c-3.4,3.4-7.6,3.3-11.9,2.2c-5.2-1.4-11-4.4-16.4-2c-5.9,2.6-6.4,9.1-7.1,14.8
				c-0.7,5.6-2,10.2-6.4,14.1c-3.6,3.1-7.9,5.2-11.9,7.6c-15,9.2-24.8,25.4-30.3,41.8c-4.4,13.3-6.6,36.4,9.2,43.6
				c5,2.3,11.9,1.1,14.5-4.2c2.8-5.7-2-11.9-7.4-13.7c-8-2.6-16.8,2.6-23.1,6.9C11.8,424,5.7,430,1.8,437.2
				c-6.7,12.4-5.7,29.6,5.8,39c13.9,11.4,34.9,2.5,48.3-5.5c36.8-21.9,60.7-63.8,67.3-105.3C123.1,364.6,121.9,364.3,121.8,365.1
				L121.8,365.1z"/>
		</g>
	</g>
	<g>
		<g>
			<path class="st18" d="M73.4,314.8c0.6-0.1,1.2,0.3,1.4,0.8c0.3,0.7,1.4,0.1,1.1-0.6c-0.5-1.1-1.7-1.6-2.8-1.4
				C72.3,313.8,72.6,315,73.4,314.8L73.4,314.8z"/>
		</g>
	</g>
	<g>
		<g>
			<path class="st18" d="M112.8,302.1c0.1,0,0.1,0,0.2,0c0.8-0.1,0.8-1.3,0-1.2c-0.1,0-0.1,0-0.2,0C112,300.9,112,302.2,112.8,302.1
				L112.8,302.1z"/>
		</g>
	</g>
	<g>
		<g>
			<path class="st18" d="M49.2,347.9c0.6-0.1,1,0.3,1.2,0.8c0.3,0.7,1.4,0.1,1.1-0.6c-0.5-1-1.6-1.5-2.6-1.4c-0.3,0-0.5,0.5-0.4,0.8
				C48.5,347.8,48.9,347.9,49.2,347.9L49.2,347.9z"/>
		</g>
	</g>
	<g>
		<g>
			<path class="st18" d="M24.7,382.4c0.5-0.3,1.2-0.1,1.5,0.4c0.4,0.7,1.5,0.1,1.1-0.6c-0.7-1.1-2.1-1.5-3.3-0.8
				C23.4,381.8,24,382.8,24.7,382.4L24.7,382.4z"/>
		</g>
	</g>
	<g>
		<g>
			<path class="st18" d="M-1.6,440.9c0.3-0.3,0.9-0.2,1.1,0.2c0.3,0.7,1.5,0.4,1.2-0.3c-0.5-1.3-2.1-1.7-3.2-0.8
				C-3.1,440.5-2.2,441.4-1.6,440.9L-1.6,440.9z"/>
		</g>
	</g>
	<g>
		<g>
			<path class="st18" d="M62.9,463.1c0.5,0.1,0.9,0.4,1.2,0.8c0.5,0.6,1.4-0.3,0.9-0.9c-0.5-0.5-1.1-0.9-1.8-1.1
				C62.5,461.7,62.1,462.9,62.9,463.1L62.9,463.1z"/>
		</g>
	</g>
	<g>
		<g>
			<path class="st18" d="M96.3,426.5c0.5-0.2,1,0,1.2,0.5c0.2,0.8,1.4,0.4,1.2-0.3c-0.3-1.1-1.6-1.8-2.7-1.4
				C95.2,425.6,95.6,426.8,96.3,426.5L96.3,426.5z"/>
		</g>
	</g>
	<g>
		<g>
			<path class="st18" d="M115.1,387.6c0.4-0.3,0.9,0,1,0.5c0,0.3,0.5,0.5,0.8,0.4c0.4-0.1,0.5-0.4,0.4-0.8c-0.2-1.3-1.8-1.9-2.8-1.3
				C113.8,387,114.4,388,115.1,387.6L115.1,387.6z"/>
		</g>
	</g>
	<g>
		<g>
			<path class="st18" d="M89,350.1c1.4-1.5,3.5-2,5.3-1.1c0.7,0.3,1.4-0.7,0.6-1.1c-2.3-1.1-5.1-0.6-6.8,1.3
				C87.6,349.8,88.5,350.7,89,350.1L89,350.1z"/>
		</g>
	</g>
	<g>
		<g>
			<path class="st18" d="M108.6,347.3c1.7-1,4-0.6,5.1,1c0.5,0.7,1.5,0,1.1-0.6c-1.5-2.2-4.5-2.9-6.8-1.4
				C107.2,346.7,107.9,347.8,108.6,347.3L108.6,347.3z"/>
		</g>
	</g>
	<g>
		<g>
			<path class="st18" d="M116.5,354.4c0.8,0,1.6,0,2.4,0c0.8,0,0.8-1.2,0-1.2s-1.6,0-2.4,0C115.7,353.2,115.7,354.4,116.5,354.4
				L116.5,354.4z"/>
		</g>
	</g>
	<g>
		<g>
			<path class="st18" d="M117.1,338.2c0.6,0.5,1.2,0.8,2,0.8s0.8-1.2,0-1.2c-0.4,0-0.8-0.2-1.1-0.4
				C117.4,336.8,116.5,337.7,117.1,338.2L117.1,338.2z"/>
		</g>
	</g>
	<g>
		<g>
			<path class="st18" d="M116.1,342.8c0.6-0.8,1.8-1,2.5-0.3c0.6,0.5,1.5-0.3,0.9-0.9c-1.4-1.2-3.5-0.9-4.5,0.6
				C114.6,342.9,115.7,343.5,116.1,342.8L116.1,342.8z"/>
		</g>
	</g>
	<g>
		<g>
			<path class="st18" d="M115.4,350.6c1.1,1.2,3.1,1,4-0.4c0.4-0.7-0.7-1.3-1.1-0.6c-0.4,0.7-1.5,0.8-2,0.2
				C115.7,349.1,114.8,350,115.4,350.6L115.4,350.6z"/>
		</g>
	</g>
	<g>
		<g>
			<path class="st18" d="M120.3,335.8c1.7-1.9,4.6-4.3,7.1-2.2c0.6,0.5,1.5-0.4,0.9-0.9c-3-2.7-6.7-0.4-8.8,2.2
				C118.9,335.5,119.8,336.4,120.3,335.8L120.3,335.8z"/>
		</g>
	</g>
	<g>
		<g>
			<path class="st18" d="M119.3,357.1c1.9,2.1,5,2.5,7.5,1.1c0.7-0.4,0.1-1.5-0.6-1.1c-2,1.1-4.4,0.7-6-0.9
				C119.6,355.6,118.7,356.5,119.3,357.1L119.3,357.1z"/>
		</g>
	</g>
	<g>
		<g>
			<path class="st18" d="M120.1,346.4c2.3-1.6,5-1.9,7.6-0.8c0.7,0.3,1.1-0.9,0.3-1.2c-2.9-1.2-6.1-0.8-8.6,1
				C118.8,345.8,119.5,346.9,120.1,346.4L120.1,346.4z"/>
		</g>
	</g>
	<g>
		<g>
			<path class="st18" d="M378.7,317.4c0.7-0.5,1.4-0.9,2.2-1.1c0.6-0.1,1.9-0.5,2.3,0.2c0.4,0.7,1.5,0,1.1-0.6
				c-1.4-2.2-5-0.5-6.5,0.7C377.2,317,378.1,317.9,378.7,317.4L378.7,317.4z"/>
		</g>
	</g>
	<g>
		<g>
			<path class="st18" d="M398.1,314.1c1.3-1.3,3-2,4.9-1.9c0.8,0,0.8-1.2,0-1.2c-2.2-0.1-4.2,0.7-5.8,2.2
				C396.6,313.8,397.5,314.7,398.1,314.1L398.1,314.1z"/>
		</g>
	</g>
	<g>
		<g>
			<path class="st18" d="M373.9,316.5c0.5-1.2,1.7-1.8,3-1.5c0.8,0.2,1.1-1,0.3-1.2c-1.7-0.4-3.7,0.4-4.4,2.1
				C372.5,316.6,373.6,317.2,373.9,316.5L373.9,316.5z"/>
		</g>
	</g>
	<g>
		<g>
			<path class="st18" d="M374.1,322.6c1.4,0.8,3,0.6,4.3-0.4c0.6-0.5-0.3-1.4-0.9-0.9c-0.8,0.6-1.9,0.7-2.8,0.2
				C374,321.2,373.4,322.2,374.1,322.6L374.1,322.6z"/>
		</g>
	</g>
	<g>
		<g>
			<path class="st18" d="M372.4,310.9c-2.5-2.1-6.2-2-8.5,0.4c-0.6,0.6,0.3,1.5,0.9,0.9c1.8-1.8,4.7-2,6.7-0.4
				C372.1,312.3,373,311.4,372.4,310.9L372.4,310.9z"/>
		</g>
	</g>
	<g>
		<g>
			<path class="st18" d="M374.7,326.6c-0.9,2.8-3.9,4.5-6.8,3.8c-0.8-0.2-1.1,1-0.3,1.2c3.6,0.9,7.2-1.2,8.3-4.7
				C376.1,326.1,374.9,325.8,374.7,326.6L374.7,326.6z"/>
		</g>
	</g>
	<g>
		<g>
			<path class="st18" d="M373.1,319c-2.5,0.1-4.9,0.7-7.1,1.9c-0.7,0.4-0.1,1.4,0.6,1.1c2-1,4.2-1.6,6.5-1.7
				C373.9,320.2,373.9,319,373.1,319L373.1,319z"/>
		</g>
	</g>
	<g>
		<g>
			<path class="st18" d="M216.4,590.2c24.3,1.5,48.7,0.1,72.7-4.1c0.8-0.1,0.5-1.3-0.3-1.2c-23.9,4.2-48.2,5.5-72.4,4
				C215.6,588.9,215.6,590.2,216.4,590.2L216.4,590.2z"/>
		</g>
	</g>
</g>
</svg>
